%YAML 1.1
%TAG !u! tag:unity3d.com,2011:
--- !u!114 &11400000
MonoBehaviour:
  m_ObjectHideFlags: 0
  m_PrefabParentObject: {fileID: 0}
  m_PrefabInternal: {fileID: 0}
  m_GameObject: {fileID: 0}
  m_Enabled: 1
  m_EditorHideFlags: 0
  m_Script: {fileID: 11500000, guid: a6b194f808b1af6499c93410e504af42, type: 3}
  m_Name: Asset_prehab3_Atlas
  m_EditorClassIdentifier: 
  atlasFile: {fileID: 4900000, guid: 72d9822a6d5ee4258ae1f0ea49422dd4, type: 3}
  materials:
  - {fileID: 2100000, guid: f9e87a2ada8264832bc7564833cf024d, type: 2}
