%YAML 1.1
%TAG !u! tag:unity3d.com,2011:
--- !u!114 &11400000
MonoBehaviour:
  m_ObjectHideFlags: 0
  m_PrefabParentObject: {fileID: 0}
  m_PrefabInternal: {fileID: 0}
  m_GameObject: {fileID: 0}
  m_Enabled: 1
  m_EditorHideFlags: 0
  m_Script: {fileID: 11500000, guid: f1b3b4b945939a54ea0b23d3396115fb, type: 3}
  m_Name: fire_goblin_bowre_SkeletonData
  m_EditorClassIdentifier: 
  atlasAssets:
  - {fileID: 11400000, guid: e63aa570e225448b5a204f86260a9a24, type: 2}
  - {fileID: 11400000, guid: ea424d01ccd1b401fbd1f0cc63529166, type: 2}
  skeletonJSON: {fileID: 4900000, guid: 6cdb86c22b8df4517b5a2339d25333a5, type: 3}
  scale: 0.01
  fromAnimation: []
  toAnimation: []
  duration: []
  defaultMix: 0
  controller: {fileID: 0}
