%YAML 1.1
%TAG !u! tag:unity3d.com,2011:
--- !u!74 &7400000
AnimationClip:
  m_ObjectHideFlags: 0
  m_PrefabParentObject: {fileID: 0}
  m_PrefabInternal: {fileID: 0}
  m_Name: fire_tree
  serializedVersion: 6
  m_Legacy: 0
  m_Compressed: 0
  m_UseHighQualityCurve: 1
  m_RotationCurves: []
  m_CompressedRotationCurves: []
  m_EulerCurves: []
  m_PositionCurves:
  - curve:
      serializedVersion: 2
      m_Curve:
      - time: 0
        value: {x: 3.472895, y: 6.91, z: 0}
        inSlope: {x: 0, y: 0, z: 0}
        outSlope: {x: -0, y: -0, z: -0}
        tangentMode: 0
      - time: 1.02
        value: {x: 3.472895, y: 6.91, z: 0}
        inSlope: {x: 0, y: 0, z: 0}
        outSlope: {x: -0, y: -18.10909, z: -0}
        tangentMode: 0
      - time: 1.7075
        value: {x: 3.472895, y: -5.54, z: 0}
        inSlope: {x: 0, y: -18.10909, z: 0}
        outSlope: {x: -0, y: -0, z: -0}
        tangentMode: 0
      - time: 9.9975
        value: {x: 3.472895, y: -5.54, z: 0}
        inSlope: {x: 0, y: 0, z: 0}
        outSlope: {x: -0, y: 4980.836, z: -0}
        tangentMode: 0
      - time: 10
        value: {x: 3.472895, y: 6.91, z: 0}
        inSlope: {x: 0, y: 4980.836, z: 0}
        outSlope: {x: -0, y: -0, z: -0}
        tangentMode: 0
      m_PreInfinity: 2
      m_PostInfinity: 2
      m_RotationOrder: 4
    path: 
  m_ScaleCurves: []
  m_FloatCurves: []
  m_PPtrCurves: []
  m_SampleRate: 400
  m_WrapMode: 0
  m_Bounds:
    m_Center: {x: 0, y: 0, z: 0}
    m_Extent: {x: 0, y: 0, z: 0}
  m_ClipBindingConstant:
    genericBindings:
    - path: 0
      attribute: 1
      script: {fileID: 0}
      classID: 4
      customType: 0
      isPPtrCurve: 0
    pptrCurveMapping: []
  m_AnimationClipSettings:
    serializedVersion: 2
    m_AdditiveReferencePoseClip: {fileID: 0}
    m_AdditiveReferencePoseTime: 0
    m_StartTime: 0
    m_StopTime: 10
    m_OrientationOffsetY: 0
    m_Level: 0
    m_CycleOffset: 0
    m_HasAdditiveReferencePose: 0
    m_LoopTime: 1
    m_LoopBlend: 0
    m_LoopBlendOrientation: 0
    m_LoopBlendPositionY: 0
    m_LoopBlendPositionXZ: 0
    m_KeepOriginalOrientation: 0
    m_KeepOriginalPositionY: 1
    m_KeepOriginalPositionXZ: 0
    m_HeightFromFeet: 0
    m_Mirror: 0
  m_EditorCurves:
  - curve:
      serializedVersion: 2
      m_Curve:
      - time: 0
        value: 3.472895
        inSlope: 0
        outSlope: -0
        tangentMode: 21
      - time: 1.02
        value: 3.472895
        inSlope: 0
        outSlope: -0
        tangentMode: 21
      - time: 1.7075
        value: 3.472895
        inSlope: 0
        outSlope: -0
        tangentMode: 21
      - time: 9.9975
        value: 3.472895
        inSlope: 0
        outSlope: -0
        tangentMode: 21
      - time: 10
        value: 3.472895
        inSlope: 0
        outSlope: -0
        tangentMode: 21
      m_PreInfinity: 2
      m_PostInfinity: 2
      m_RotationOrder: 4
    attribute: m_LocalPosition.x
    path: 
    classID: 4
    script: {fileID: 0}
  - curve:
      serializedVersion: 2
      m_Curve:
      - time: 0
        value: 6.91
        inSlope: 0
        outSlope: -0
        tangentMode: 21
      - time: 1.02
        value: 6.91
        inSlope: 0
        outSlope: -18.10909
        tangentMode: 21
      - time: 1.7075
        value: -5.54
        inSlope: -18.10909
        outSlope: -0
        tangentMode: 21
      - time: 9.9975
        value: -5.54
        inSlope: 0
        outSlope: 4980.836
        tangentMode: 21
      - time: 10
        value: 6.91
        inSlope: 4980.836
        outSlope: -0
        tangentMode: 21
      m_PreInfinity: 2
      m_PostInfinity: 2
      m_RotationOrder: 4
    attribute: m_LocalPosition.y
    path: 
    classID: 4
    script: {fileID: 0}
  - curve:
      serializedVersion: 2
      m_Curve:
      - time: 0
        value: 0
        inSlope: 0
        outSlope: -0
        tangentMode: 21
      - time: 1.02
        value: 0
        inSlope: 0
        outSlope: -0
        tangentMode: 21
      - time: 1.7075
        value: 0
        inSlope: 0
        outSlope: -0
        tangentMode: 21
      - time: 9.9975
        value: 0
        inSlope: 0
        outSlope: -0
        tangentMode: 21
      - time: 10
        value: 0
        inSlope: 0
        outSlope: -0
        tangentMode: 21
      m_PreInfinity: 2
      m_PostInfinity: 2
      m_RotationOrder: 4
    attribute: m_LocalPosition.z
    path: 
    classID: 4
    script: {fileID: 0}
  m_EulerEditorCurves: []
  m_HasGenericRootTransform: 1
  m_HasMotionFloatCurves: 0
  m_GenerateMotionCurves: 0
  m_Events: []
