%YAML 1.1
%TAG !u! tag:unity3d.com,2011:
--- !u!114 &11400000
MonoBehaviour:
  m_ObjectHideFlags: 0
  m_PrefabParentObject: {fileID: 0}
  m_PrefabInternal: {fileID: 0}
  m_GameObject: {fileID: 0}
  m_Enabled: 1
  m_EditorHideFlags: 0
  m_Script: {fileID: 11500000, guid: a6b194f808b1af6499c93410e504af42, type: 3}
  m_Name: chara_parts_Atlas
  m_EditorClassIdentifier: 
  atlasFile: {fileID: 4900000, guid: 4522415890e4241ab891b53400b512a5, type: 3}
  materials:
  - {fileID: 2100000, guid: 1b464298704db4779af43b4ee3cbe398, type: 2}
