%YAML 1.1
%TAG !u! tag:unity3d.com,2011:
--- !u!114 &11400000
MonoBehaviour:
  m_ObjectHideFlags: 0
  m_PrefabParentObject: {fileID: 0}
  m_PrefabInternal: {fileID: 0}
  m_GameObject: {fileID: 0}
  m_Enabled: 1
  m_EditorHideFlags: 0
  m_Script: {fileID: 11500000, guid: f1b3b4b945939a54ea0b23d3396115fb, type: 3}
  m_Name: forest_goblin_axe_SkeletonData
  m_EditorClassIdentifier: 
  atlasAssets:
  - {fileID: 11400000, guid: 865ee7e1dc09b4222b50911d4fe917f6, type: 2}
  - {fileID: 11400000, guid: dd9a706479ea44816bb99b20fcbcac2f, type: 2}
  skeletonJSON: {fileID: 4900000, guid: 86a9aec3d5edd4393aca25a5b05cc63e, type: 3}
  scale: 0.01
  fromAnimation: []
  toAnimation: []
  duration: []
  defaultMix: 0
  controller: {fileID: 0}
