%YAML 1.1
%TAG !u! tag:unity3d.com,2011:
--- !u!74 &7400000
AnimationClip:
  m_ObjectHideFlags: 0
  m_PrefabParentObject: {fileID: 0}
  m_PrefabInternal: {fileID: 0}
  m_Name: Fire Animation
  serializedVersion: 6
  m_Legacy: 0
  m_Compressed: 0
  m_UseHighQualityCurve: 1
  m_RotationCurves: []
  m_CompressedRotationCurves: []
  m_EulerCurves: []
  m_PositionCurves: []
  m_ScaleCurves: []
  m_FloatCurves: []
  m_PPtrCurves:
  - curve:
    - time: 0
      value: {fileID: 21300000, guid: 080f620b429034602800aed5c8a16013, type: 3}
    - time: 0.06666667
      value: {fileID: 21300000, guid: f011c6fc4ceee427f858afb7f029ad8f, type: 3}
    - time: 0.13333334
      value: {fileID: 21300000, guid: 7d90b9f3640e24347927374216bc123e, type: 3}
    - time: 0.2
      value: {fileID: 21300000, guid: 4124ab3dc195d42b190ca9556a856343, type: 3}
    - time: 0.26666668
      value: {fileID: 21300000, guid: dd35c8376bc3e4a848f6ea52b0b0050c, type: 3}
    - time: 0.33333334
      value: {fileID: 21300000, guid: 4cbc92f5b2a9d4813a0236002f73d2ee, type: 3}
    - time: 0.4
      value: {fileID: 21300000, guid: 4cbc92f5b2a9d4813a0236002f73d2ee, type: 3}
    attribute: m_Sprite
    path: 
    classID: 212
    script: {fileID: 0}
  m_SampleRate: 60
  m_WrapMode: 0
  m_Bounds:
    m_Center: {x: 0, y: 0, z: 0}
    m_Extent: {x: 0, y: 0, z: 0}
  m_ClipBindingConstant:
    genericBindings:
    - path: 0
      attribute: 0
      script: {fileID: 0}
      classID: 212
      customType: 23
      isPPtrCurve: 1
    pptrCurveMapping:
    - {fileID: 21300000, guid: 080f620b429034602800aed5c8a16013, type: 3}
    - {fileID: 21300000, guid: f011c6fc4ceee427f858afb7f029ad8f, type: 3}
    - {fileID: 21300000, guid: 7d90b9f3640e24347927374216bc123e, type: 3}
    - {fileID: 21300000, guid: 4124ab3dc195d42b190ca9556a856343, type: 3}
    - {fileID: 21300000, guid: dd35c8376bc3e4a848f6ea52b0b0050c, type: 3}
    - {fileID: 21300000, guid: 4cbc92f5b2a9d4813a0236002f73d2ee, type: 3}
    - {fileID: 21300000, guid: 4cbc92f5b2a9d4813a0236002f73d2ee, type: 3}
  m_AnimationClipSettings:
    serializedVersion: 2
    m_AdditiveReferencePoseClip: {fileID: 0}
    m_AdditiveReferencePoseTime: 0
    m_StartTime: 0
    m_StopTime: 0.4166667
    m_OrientationOffsetY: 0
    m_Level: 0
    m_CycleOffset: 0
    m_HasAdditiveReferencePose: 0
    m_LoopTime: 1
    m_LoopBlend: 0
    m_LoopBlendOrientation: 0
    m_LoopBlendPositionY: 0
    m_LoopBlendPositionXZ: 0
    m_KeepOriginalOrientation: 0
    m_KeepOriginalPositionY: 1
    m_KeepOriginalPositionXZ: 0
    m_HeightFromFeet: 0
    m_Mirror: 0
  m_EditorCurves: []
  m_EulerEditorCurves: []
  m_HasGenericRootTransform: 0
  m_HasMotionFloatCurves: 0
  m_GenerateMotionCurves: 0
  m_Events: []
