{
    "Aaron.CV": "福間竣兵", 
    "Aaron.Name": "アーロン", 
    "Aaron.Title.1": "真紅の一閃", 
    "Aaron.Title.2": "真紅の一閃+", 
    "Aaron.Title.3": "真真紅の一閃", 
    "Aaron.Title.4": "真真紅の一閃+", 
    "Aaron.Title.5": "聖真紅の一閃", 
    "Aaron.Title.6": "聖真紅の一閃+", 
    "Abuf.CV": "立花慎之介", 
    "Abuf.Name": "アバフ", 
    "Abuf.Title.1": "漆黒の復讐鬼", 
    "Abuf.Title.2": "漆黒の復讐鬼+", 
    "Abuf.Title.3": "真漆黒の復讐鬼", 
    "Abuf.Title.4": "真漆黒の復讐鬼+", 
    "Abuf.Title.5": "聖漆黒の復讐鬼", 
    "Abuf.Title.6": "聖漆黒の復讐鬼+", 
    "Ajura.CV": "上間江望", 
    "Ajura.Name": "アジェラ", 
    "Ajura.Title.1": "魔族の美姫", 
    "Ajura.Title.2": "魔族の美姫+", 
    "Ajura.Title.3": "真魔族の美姫", 
    "Ajura.Title.4": "真魔族の美姫+", 
    "Ajura.Title.5": "聖魔族の美姫", 
    "Ajura.Title.6": "聖魔族の美姫+", 
    "Asha.CV": "上間江望", 
    "Asha.Name": "アシュリー", 
    "Asha.Title.1": "紫電の魔導士", 
    "Asha.Title.2": "紫電の魔導士+", 
    "Asha.Title.3": "真紫電の魔導士", 
    "Asha.Title.4": "真紫電の魔導士+", 
    "Asha.Title.5": "聖紫電の魔導士", 
    "Asha.Title.6": "聖紫電の魔導士+", 
    "Basuhow.CV": "真木駿一", 
    "Basuhow.Name": "バシュラ", 
    "Basuhow.Title.1": "疾風の恐鳥", 
    "Basuhow.Title.2": "疾風の恐鳥+", 
    "Basuhow.Title.3": "真疾風の恐鳥", 
    "Basuhow.Title.4": "真疾風の恐鳥+", 
    "Basuhow.Title.5": "聖疾風の恐鳥", 
    "Basuhow.Title.6": "聖疾風の恐鳥+", 
    "Bluewolf.CV": "", 
    "Bluewolf.Name": "ブルーウルフ", 
    "Bluewolf.Title.1": "", 
    "Bluewolf.Title.2": "", 
    "Bluewolf.Title.3": "", 
    "Bluewolf.Title.4": "", 
    "Bluewolf.Title.5": "", 
    "Bluewolf.Title.6": "", 
    "Bone1Bow.CV": "", 
    "Bone1Bow.Name": "ガイコツ弓兵", 
    "Bone1Bow.Title.1": "", 
    "Bone1Bow.Title.2": "", 
    "Bone1Bow.Title.3": "", 
    "Bone1Bow.Title.4": "", 
    "Bone1Bow.Title.5": "", 
    "Bone1Bow.Title.6": "", 
    "Bone1Magic.CV": "", 
    "Bone1Magic.Name": "ガイコツ魔法兵", 
    "Bone1Magic.Title.1": "", 
    "Bone1Magic.Title.2": "", 
    "Bone1Magic.Title.3": "", 
    "Bone1Magic.Title.4": "", 
    "Bone1Magic.Title.5": "", 
    "Bone1Magic.Title.6": "", 
    "Bone1Spear.CV": "", 
    "Bone1Spear.Name": "ガイコツ槍兵", 
    "Bone1Spear.Title.1": "", 
    "Bone1Spear.Title.2": "", 
    "Bone1Spear.Title.3": "", 
    "Bone1Spear.Title.4": "", 
    "Bone1Spear.Title.5": "", 
    "Bone1Spear.Title.6": "", 
    "Bone1Sword.CV": "", 
    "Bone1Sword.Name": "ガイコツ剣兵", 
    "Bone1Sword.Title.1": "", 
    "Bone1Sword.Title.2": "", 
    "Bone1Sword.Title.3": "", 
    "Bone1Sword.Title.4": "", 
    "Bone1Sword.Title.5": "", 
    "Bone1Sword.Title.6": "", 
    "Charlotte.CV": "五味紗也香", 
    "Charlotte.Name": "シャルロット", 
    "Charlotte.Title.1": "美麗の癒し手", 
    "Charlotte.Title.2": "美麗の癒し手+", 
    "Charlotte.Title.3": "真美麗の癒し手", 
    "Charlotte.Title.4": "真美麗の癒し手+", 
    "Charlotte.Title.5": "聖美麗の癒し手", 
    "Charlotte.Title.6": "聖美麗の癒し手+", 
    "ColoColo.CV": "春宮茉由", 
    "ColoColo.Name": "ボラー", 
    "ColoColo.Title.1": "深海のダイバー", 
    "ColoColo.Title.2": "深海のダイバー+", 
    "ColoColo.Title.3": "真深海のダイバー", 
    "ColoColo.Title.4": "真深海のダイバー+", 
    "ColoColo.Title.5": "聖深海のダイバー", 
    "ColoColo.Title.6": "聖深海のダイバー+", 
    "Coppi.CV": "弓原健史", 
    "Coppi.Name": "ココッピ", 
    "Coppi.Title.1": "きっちり射手", 
    "Coppi.Title.2": "きっちり射手+", 
    "Coppi.Title.3": "真きっちり射手", 
    "Coppi.Title.4": "真きっちり射手+", 
    "Coppi.Title.5": "聖きっちり射手", 
    "Coppi.Title.6": "聖きっちり射手+", 
    "Direwolf.CV": "", 
    "Direwolf.Name": "ダイアウルフ", 
    "Direwolf.Title.1": "", 
    "Direwolf.Title.2": "", 
    "Direwolf.Title.3": "", 
    "Direwolf.Title.4": "", 
    "Direwolf.Title.5": "", 
    "Direwolf.Title.6": "", 
    "DokoDoko.CV": "牟田実波", 
    "DokoDoko.Name": "ナッグ", 
    "DokoDoko.Title.1": "無敗の巨獣", 
    "DokoDoko.Title.2": "無敗の巨獣+", 
    "DokoDoko.Title.3": "真無敗の巨獣", 
    "DokoDoko.Title.4": "真無敗の巨獣+", 
    "DokoDoko.Title.5": "聖無敗の巨獣", 
    "DokoDoko.Title.6": "聖無敗の巨獣+", 
    "Eagle.CV": "牟田実波", 
    "Eagle.Name": "Gクイーン", 
    "Eagle.Title.1": "指揮機兵", 
    "Eagle.Title.2": "指揮機兵+", 
    "Eagle.Title.3": "真指揮機兵", 
    "Eagle.Title.4": "真指揮機兵+", 
    "Eagle.Title.5": "聖指揮機兵", 
    "Eagle.Title.6": "聖指揮機兵+", 
    "Elders.CV": "橋本悠平", 
    "Elders.Name": "エルノ", 
    "Elders.Title.1": "偽りの騎士", 
    "Elders.Title.2": "偽りの騎士+", 
    "Elders.Title.3": "真偽りの騎士", 
    "Elders.Title.4": "真偽りの騎士+", 
    "Elders.Title.5": "聖偽りの騎士", 
    "Elders.Title.6": "聖偽りの騎士+", 
    "FireGoblinAx.CV": "", 
    "FireGoblinAx.Name": "火ゴブリン斧兵", 
    "FireGoblinAx.Title.1": "", 
    "FireGoblinAx.Title.2": "", 
    "FireGoblinAx.Title.3": "", 
    "FireGoblinAx.Title.4": "", 
    "FireGoblinAx.Title.5": "", 
    "FireGoblinAx.Title.6": "", 
    "FireGoblinBow.CV": "", 
    "FireGoblinBow.Name": "火ゴブリン弓兵", 
    "FireGoblinBow.Title.1": "", 
    "FireGoblinBow.Title.2": "", 
    "FireGoblinBow.Title.3": "", 
    "FireGoblinBow.Title.4": "", 
    "FireGoblinBow.Title.5": "", 
    "FireGoblinBow.Title.6": "", 
    "FireGoblinSpear.CV": "", 
    "FireGoblinSpear.Name": "火ゴブリン槍兵", 
    "FireGoblinSpear.Title.1": "", 
    "FireGoblinSpear.Title.2": "", 
    "FireGoblinSpear.Title.3": "", 
    "FireGoblinSpear.Title.4": "", 
    "FireGoblinSpear.Title.5": "", 
    "FireGoblinSpear.Title.6": "", 
    "ForestGoblinAx.CV": "", 
    "ForestGoblinAx.Name": "森ゴブリン斧兵", 
    "ForestGoblinAx.Title.1": "", 
    "ForestGoblinAx.Title.2": "", 
    "ForestGoblinAx.Title.3": "", 
    "ForestGoblinAx.Title.4": "", 
    "ForestGoblinAx.Title.5": "", 
    "ForestGoblinAx.Title.6": "", 
    "ForestGoblinBow.CV": "", 
    "ForestGoblinBow.Name": "森ゴブリン弓兵", 
    "ForestGoblinBow.Title.1": "", 
    "ForestGoblinBow.Title.2": "", 
    "ForestGoblinBow.Title.3": "", 
    "ForestGoblinBow.Title.4": "", 
    "ForestGoblinBow.Title.5": "", 
    "ForestGoblinBow.Title.6": "", 
    "ForestGoblinSpear.CV": "", 
    "ForestGoblinSpear.Name": "森ゴブリン槍兵", 
    "ForestGoblinSpear.Title.1": "", 
    "ForestGoblinSpear.Title.2": "", 
    "ForestGoblinSpear.Title.3": "", 
    "ForestGoblinSpear.Title.4": "", 
    "ForestGoblinSpear.Title.5": "", 
    "ForestGoblinSpear.Title.6": "", 
    "GaboWa.CV": "平山拓実", 
    "GaboWa.Name": "ダハ・ブ", 
    "GaboWa.Title.1": "不退転の竜将", 
    "GaboWa.Title.2": "不退転の竜将+", 
    "GaboWa.Title.3": "真不退転の竜将", 
    "GaboWa.Title.4": "真不退転の竜将+", 
    "GaboWa.Title.5": "聖不退転の竜将", 
    "GaboWa.Title.6": "聖不退転の竜将+", 
    "GamiGami.CV": "小澤麗那", 
    "GamiGami.Name": "デッツ", 
    "GamiGami.Title.1": "鉄雨メーカー", 
    "GamiGami.Title.2": "鉄雨メーカー+", 
    "GamiGami.Title.3": "真鉄雨メーカー", 
    "GamiGami.Title.4": "真鉄雨メーカー+", 
    "GamiGami.Title.5": "聖鉄雨メーカー", 
    "GamiGami.Title.6": "聖鉄雨メーカー+", 
    "Garlg.CV": "橋本悠平", 
    "Garlg.Name": "ガールグ", 
    "Garlg.Title.1": "戦慄の黒龍", 
    "Garlg.Title.2": "戦慄の黒龍+", 
    "Garlg.Title.3": "真戦慄の黒龍", 
    "Garlg.Title.4": "真戦慄の黒龍+", 
    "Garlg.Title.5": "聖戦慄の黒龍", 
    "Garlg.Title.6": "聖戦慄の黒龍+", 
    "Gilford.CV": "水島大宙", 
    "Gilford.Name": "ギルフォード", 
    "Gilford.Title.1": "鉄壁の騎士", 
    "Gilford.Title.2": "鉄壁の騎士+", 
    "Gilford.Title.3": "真鉄壁の騎士", 
    "Gilford.Title.4": "真鉄壁の騎士+", 
    "Gilford.Title.5": "聖鉄壁の騎士", 
    "Gilford.Title.6": "聖鉄壁の騎士+", 
    "GoblinAx.CV": "", 
    "GoblinAx.Name": "ゴブリン盗賊斧兵", 
    "GoblinAx.Title.1": "", 
    "GoblinAx.Title.2": "", 
    "GoblinAx.Title.3": "", 
    "GoblinAx.Title.4": "", 
    "GoblinAx.Title.5": "", 
    "GoblinAx.Title.6": "", 
    "GoblinBow.CV": "", 
    "GoblinBow.Name": "ゴブリン盗賊弓兵", 
    "GoblinBow.Title.1": "", 
    "GoblinBow.Title.2": "", 
    "GoblinBow.Title.3": "", 
    "GoblinBow.Title.4": "", 
    "GoblinBow.Title.5": "", 
    "GoblinBow.Title.6": "", 
    "GoblinSpear.CV": "", 
    "GoblinSpear.Name": "ゴブリン盗賊槍兵", 
    "GoblinSpear.Title.1": "", 
    "GoblinSpear.Title.2": "", 
    "GoblinSpear.Title.3": "", 
    "GoblinSpear.Title.4": "", 
    "GoblinSpear.Title.5": "", 
    "GoblinSpear.Title.6": "", 
    "GreenRegaliceratops.CV": "", 
    "GreenRegaliceratops.Name": "グリーンレガリケラトプス", 
    "GreenRegaliceratops.Title.1": "", 
    "GreenRegaliceratops.Title.2": "", 
    "GreenRegaliceratops.Title.3": "", 
    "GreenRegaliceratops.Title.4": "", 
    "GreenRegaliceratops.Title.5": "", 
    "GreenRegaliceratops.Title.6": "", 
    "Hound.CV": "五味紗也香", 
    "Hound.Name": "バウバウ０９", 
    "Hound.Title.1": "蒸気の猟犬", 
    "Hound.Title.2": "蒸気の猟犬+", 
    "Hound.Title.3": "真蒸気の猟犬", 
    "Hound.Title.4": "真蒸気の猟犬+", 
    "Hound.Title.5": "聖蒸気の猟犬", 
    "Hound.Title.6": "聖蒸気の猟犬+", 
    "Jicco.CV": "梅原裕一郎", 
    "Jicco.Name": "ジッコ", 
    "Jicco.Title.1": "プルプル砲手", 
    "Jicco.Title.2": "プルプル砲手+", 
    "Jicco.Title.3": "真プルプル砲手", 
    "Jicco.Title.4": "真プルプル砲手+", 
    "Jicco.Title.5": "聖プルプル砲手", 
    "Jicco.Title.6": "聖プルプル砲手+", 
    "Kingdom1Cannon.CV": "", 
    "Kingdom1Cannon.Name": "ラルザス砲兵", 
    "Kingdom1Cannon.Title.1": "", 
    "Kingdom1Cannon.Title.2": "", 
    "Kingdom1Cannon.Title.3": "", 
    "Kingdom1Cannon.Title.4": "", 
    "Kingdom1Cannon.Title.5": "", 
    "Kingdom1Cannon.Title.6": "", 
    "Kingdom1Gun.CV": "", 
    "Kingdom1Gun.Name": "ラルザス銃兵", 
    "Kingdom1Gun.Title.1": "", 
    "Kingdom1Gun.Title.2": "", 
    "Kingdom1Gun.Title.3": "", 
    "Kingdom1Gun.Title.4": "", 
    "Kingdom1Gun.Title.5": "", 
    "Kingdom1Gun.Title.6": "", 
    "Kingdom1Invalid.CV": "", 
    "Kingdom1Invalid.Name": "ラルザス盾兵", 
    "Kingdom1Invalid.Title.1": "", 
    "Kingdom1Invalid.Title.2": "", 
    "Kingdom1Invalid.Title.3": "", 
    "Kingdom1Invalid.Title.4": "", 
    "Kingdom1Invalid.Title.5": "", 
    "Kingdom1Invalid.Title.6": "", 
    "Kingdom1Spear.CV": "", 
    "Kingdom1Spear.Name": "ラルザス槍兵", 
    "Kingdom1Spear.Title.1": "", 
    "Kingdom1Spear.Title.2": "", 
    "Kingdom1Spear.Title.3": "", 
    "Kingdom1Spear.Title.4": "", 
    "Kingdom1Spear.Title.5": "", 
    "Kingdom1Spear.Title.6": "", 
    "Kingdom1Sword.CV": "", 
    "Kingdom1Sword.Name": "ラルザス剣兵", 
    "Kingdom1Sword.Title.1": "", 
    "Kingdom1Sword.Title.2": "", 
    "Kingdom1Sword.Title.3": "", 
    "Kingdom1Sword.Title.4": "", 
    "Kingdom1Sword.Title.5": "", 
    "Kingdom1Sword.Title.6": "", 
    "Kingdom2Cannon.CV": "", 
    "Kingdom2Cannon.Name": "ラルザス上級砲兵", 
    "Kingdom2Cannon.Title.1": "", 
    "Kingdom2Cannon.Title.2": "", 
    "Kingdom2Cannon.Title.3": "", 
    "Kingdom2Cannon.Title.4": "", 
    "Kingdom2Cannon.Title.5": "", 
    "Kingdom2Cannon.Title.6": "", 
    "Kingdom2Gun.CV": "", 
    "Kingdom2Gun.Name": "ラルザス上級銃兵", 
    "Kingdom2Gun.Title.1": "", 
    "Kingdom2Gun.Title.2": "", 
    "Kingdom2Gun.Title.3": "", 
    "Kingdom2Gun.Title.4": "", 
    "Kingdom2Gun.Title.5": "", 
    "Kingdom2Gun.Title.6": "", 
    "Kingdom2Invalid.CV": "", 
    "Kingdom2Invalid.Name": "ラルザス上級盾兵", 
    "Kingdom2Invalid.Title.1": "", 
    "Kingdom2Invalid.Title.2": "", 
    "Kingdom2Invalid.Title.3": "", 
    "Kingdom2Invalid.Title.4": "", 
    "Kingdom2Invalid.Title.5": "", 
    "Kingdom2Invalid.Title.6": "", 
    "Kingdom2Spear.CV": "", 
    "Kingdom2Spear.Name": "ラルザス上級槍兵", 
    "Kingdom2Spear.Title.1": "", 
    "Kingdom2Spear.Title.2": "", 
    "Kingdom2Spear.Title.3": "", 
    "Kingdom2Spear.Title.4": "", 
    "Kingdom2Spear.Title.5": "", 
    "Kingdom2Spear.Title.6": "", 
    "Kingdom2Sword.CV": "", 
    "Kingdom2Sword.Name": "ラルザス上級剣兵", 
    "Kingdom2Sword.Title.1": "", 
    "Kingdom2Sword.Title.2": "", 
    "Kingdom2Sword.Title.3": "", 
    "Kingdom2Sword.Title.4": "", 
    "Kingdom2Sword.Title.5": "", 
    "Kingdom2Sword.Title.6": "", 
    "Kingdom3Cannon.CV": "", 
    "Kingdom3Cannon.Name": "ラルザス近衛砲兵", 
    "Kingdom3Cannon.Title.1": "", 
    "Kingdom3Cannon.Title.2": "", 
    "Kingdom3Cannon.Title.3": "", 
    "Kingdom3Cannon.Title.4": "", 
    "Kingdom3Cannon.Title.5": "", 
    "Kingdom3Cannon.Title.6": "", 
    "Kingdom3Gun.CV": "", 
    "Kingdom3Gun.Name": "ラルザス近衛銃兵", 
    "Kingdom3Gun.Title.1": "", 
    "Kingdom3Gun.Title.2": "", 
    "Kingdom3Gun.Title.3": "", 
    "Kingdom3Gun.Title.4": "", 
    "Kingdom3Gun.Title.5": "", 
    "Kingdom3Gun.Title.6": "", 
    "Kingdom3Invalid.CV": "", 
    "Kingdom3Invalid.Name": "ラルザス近衛盾兵", 
    "Kingdom3Invalid.Title.1": "", 
    "Kingdom3Invalid.Title.2": "", 
    "Kingdom3Invalid.Title.3": "", 
    "Kingdom3Invalid.Title.4": "", 
    "Kingdom3Invalid.Title.5": "", 
    "Kingdom3Invalid.Title.6": "", 
    "Kingdom3Spear.CV": "", 
    "Kingdom3Spear.Name": "ラルザス近衛槍兵", 
    "Kingdom3Spear.Title.1": "", 
    "Kingdom3Spear.Title.2": "", 
    "Kingdom3Spear.Title.3": "", 
    "Kingdom3Spear.Title.4": "", 
    "Kingdom3Spear.Title.5": "", 
    "Kingdom3Spear.Title.6": "", 
    "Kingdom3Sword.CV": "", 
    "Kingdom3Sword.Name": "ラルザス近衛剣兵", 
    "Kingdom3Sword.Title.1": "", 
    "Kingdom3Sword.Title.2": "", 
    "Kingdom3Sword.Title.3": "", 
    "Kingdom3Sword.Title.4": "", 
    "Kingdom3Sword.Title.5": "", 
    "Kingdom3Sword.Title.6": "", 
    "Kitto.CV": "橋本悠平", 
    "Kitto.Name": "パット", 
    "Kitto.Title.1": "おっとり鼓手", 
    "Kitto.Title.2": "おっとり鼓手+", 
    "Kitto.Title.3": "真おっとり鼓手", 
    "Kitto.Title.4": "真おっとり鼓手+", 
    "Kitto.Title.5": "聖おっとり鼓手", 
    "Kitto.Title.6": "聖おっとり鼓手+", 
    "Kitto1.CV": "", 
    "Kitto1.Name": "ブラザーハム", 
    "Kitto1.Title.1": "", 
    "Kitto1.Title.2": "", 
    "Kitto1.Title.3": "", 
    "Kitto1.Title.4": "", 
    "Kitto1.Title.5": "", 
    "Kitto1.Title.6": "", 
    "Knight.CV": "五味紗也香", 
    "Knight.Name": "Gナイト", 
    "Knight.Title.1": "高速機兵", 
    "Knight.Title.2": "高速機兵+", 
    "Knight.Title.3": "真高速機兵", 
    "Knight.Title.4": "真高速機兵+", 
    "Knight.Title.5": "聖高速機兵", 
    "Knight.Title.6": "聖高速機兵+", 
    "Knight1.CV": "", 
    "Knight1.Name": "ミニナイト", 
    "Knight1.Title.1": "", 
    "Knight1.Title.2": "", 
    "Knight1.Title.3": "", 
    "Knight1.Title.4": "", 
    "Knight1.Title.5": "", 
    "Knight1.Title.6": "", 
    "Kryl.CV": "藤原万綺", 
    "Kryl.Name": "アヴリル", 
    "Kryl.Title.1": "ドルイドの巫女", 
    "Kryl.Title.2": "ドルイドの巫女+", 
    "Kryl.Title.3": "真ドルイドの巫女", 
    "Kryl.Title.4": "真ドルイドの巫女+", 
    "Kryl.Title.5": "聖ドルイドの巫女", 
    "Kryl.Title.6": "聖ドルイドの巫女+", 
    "KuluKulu.CV": "藤原万綺", 
    "KuluKulu.Name": "ファーグ", 
    "KuluKulu.Title.1": "天空のハンター", 
    "KuluKulu.Title.2": "天空のハンター+", 
    "KuluKulu.Title.3": "真天空のハンター", 
    "KuluKulu.Title.4": "真天空のハンター+", 
    "KuluKulu.Title.5": "聖天空のハンター", 
    "KuluKulu.Title.6": "聖天空のハンター+", 
    "Lucir.CV": "大谷衣里奈", 
    "Lucir.Name": "ルシール", 
    "Lucir.Title.1": "王国の弓使い", 
    "Lucir.Title.2": "王国の弓使い+", 
    "Lucir.Title.3": "真王国の弓使い", 
    "Lucir.Title.4": "真王国の弓使い+", 
    "Lucir.Title.5": "聖王国の弓使い", 
    "Lucir.Title.6": "聖王国の弓使い+", 
    "Mababa.CV": "", 
    "Mababa.Name": "マババ", 
    "Mababa.Title.1": "", 
    "Mababa.Title.2": "", 
    "Mababa.Title.3": "", 
    "Mababa.Title.4": "", 
    "Mababa.Title.5": "", 
    "Mababa.Title.6": "", 
    "MababaDoko.CV": "", 
    "MababaDoko.Name": "マババ（搭乗中）", 
    "MababaDoko.Title.1": "", 
    "MababaDoko.Title.2": "", 
    "MababaDoko.Title.3": "", 
    "MababaDoko.Title.4": "", 
    "MababaDoko.Title.5": "", 
    "MababaDoko.Title.6": "", 
    "MagicRobotCat.CV": "", 
    "MagicRobotCat.Name": "魔法無効ネコ", 
    "MagicRobotCat.Title.1": "", 
    "MagicRobotCat.Title.2": "", 
    "MagicRobotCat.Title.3": "", 
    "MagicRobotCat.Title.4": "", 
    "MagicRobotCat.Title.5": "", 
    "MagicRobotCat.Title.6": "", 
    "Mejedo.CV": "真木駿一", 
    "Mejedo.Name": "メジェガ", 
    "Mejedo.Title.1": "万古の殺人鬼", 
    "Mejedo.Title.2": "万古の殺人鬼+", 
    "Mejedo.Title.3": "真万古の殺人鬼", 
    "Mejedo.Title.4": "真万古の殺人鬼+", 
    "Mejedo.Title.5": "聖万古の殺人鬼", 
    "Mejedo.Title.6": "聖万古の殺人鬼+", 
    "Mildred.CV": "小清水亜美", 
    "Mildred.Name": "ミルドレッド", 
    "Mildred.Title.1": "怪力王女", 
    "Mildred.Title.2": "怪力王女+", 
    "Mildred.Title.3": "真怪力王女", 
    "Mildred.Title.4": "真怪力王女+", 
    "Mildred.Title.5": "聖怪力王女", 
    "Mildred.Title.6": "聖怪力王女+", 
    "Mokke.CV": "織田亜希", 
    "Mokke.Name": "ブルー", 
    "Mokke.Title.1": "おてんば剣士", 
    "Mokke.Title.2": "おてんば剣士+", 
    "Mokke.Title.3": "真おてんば剣士", 
    "Mokke.Title.4": "真おてんば剣士+", 
    "Mokke.Title.5": "聖おてんば剣士", 
    "Mokke.Title.6": "聖おてんば剣士+", 
    "MujijiUI.CV": "", 
    "MujijiUI.Name": "ムジジ", 
    "MujijiUI.Title.1": "", 
    "MujijiUI.Title.2": "", 
    "MujijiUI.Title.3": "", 
    "MujijiUI.Title.4": "", 
    "MujijiUI.Title.5": "", 
    "MujijiUI.Title.6": "", 
    "Pawn.CV": "春宮茉由", 
    "Pawn.Name": "Gポーン", 
    "Pawn.Title.1": "戦術機兵", 
    "Pawn.Title.2": "戦術機兵+", 
    "Pawn.Title.3": "真戦術機兵", 
    "Pawn.Title.4": "真戦術機兵+", 
    "Pawn.Title.5": "聖戦術機兵", 
    "Pawn.Title.6": "聖戦術機兵+", 
    "PhysicalRobotCat.CV": "", 
    "PhysicalRobotCat.Name": "物理無効ネコ", 
    "PhysicalRobotCat.Title.1": "", 
    "PhysicalRobotCat.Title.2": "", 
    "PhysicalRobotCat.Title.3": "", 
    "PhysicalRobotCat.Title.4": "", 
    "PhysicalRobotCat.Title.5": "", 
    "PhysicalRobotCat.Title.6": "", 
    "Picco.CV": "上間江望", 
    "Picco.Name": "ピッコ", 
    "Picco.Title.1": "おしゃま貴婦人", 
    "Picco.Title.2": "おしゃま貴婦人+", 
    "Picco.Title.3": "真おしゃま貴婦人", 
    "Picco.Title.4": "真おしゃま貴婦人+", 
    "Picco.Title.5": "聖おしゃま貴婦人", 
    "Picco.Title.6": "聖おしゃま貴婦人+", 
    "Pico.CV": "小澤麗那", 
    "Pico.Name": "ベラ", 
    "Pico.Title.1": "不朽の双璧", 
    "Pico.Title.2": "不朽の双璧+", 
    "Pico.Title.3": "真不朽の双璧", 
    "Pico.Title.4": "真不朽の双璧+", 
    "Pico.Title.5": "聖不朽の双璧", 
    "Pico.Title.6": "聖不朽の双璧+", 
    "Piki.CV": "伯川渉子", 
    "Piki.Name": "ベル", 
    "Piki.Title.1": "不壊の双璧", 
    "Piki.Title.2": "不壊の双璧+", 
    "Piki.Title.3": "真不壊の双璧", 
    "Piki.Title.4": "真不壊の双璧+", 
    "Piki.Title.5": "聖不壊の双璧", 
    "Piki.Title.6": "聖不壊の双璧+", 
    "PogoPogo.CV": "伯川渉子", 
    "PogoPogo.Name": "ドドド", 
    "PogoPogo.Title.1": "恐怖の爆撃", 
    "PogoPogo.Title.2": "恐怖の爆撃+", 
    "PogoPogo.Title.3": "真恐怖の爆撃", 
    "PogoPogo.Title.4": "真恐怖の爆撃+", 
    "PogoPogo.Title.5": "聖恐怖の爆撃", 
    "PogoPogo.Title.6": "聖恐怖の爆撃+", 
    "Quiek1Flail.CV": "", 
    "Quiek1Flail.Name": "クヴィークフレイル兵", 
    "Quiek1Flail.Title.1": "", 
    "Quiek1Flail.Title.2": "", 
    "Quiek1Flail.Title.3": "", 
    "Quiek1Flail.Title.4": "", 
    "Quiek1Flail.Title.5": "", 
    "Quiek1Flail.Title.6": "", 
    "Quiek1Flame.CV": "", 
    "Quiek1Flame.Name": "クヴィーク火炎銃兵", 
    "Quiek1Flame.Title.1": "", 
    "Quiek1Flame.Title.2": "", 
    "Quiek1Flame.Title.3": "", 
    "Quiek1Flame.Title.4": "", 
    "Quiek1Flame.Title.5": "", 
    "Quiek1Flame.Title.6": "", 
    "Quiek1Gun.CV": "", 
    "Quiek1Gun.Name": "クヴィーク銃兵", 
    "Quiek1Gun.Title.1": "", 
    "Quiek1Gun.Title.2": "", 
    "Quiek1Gun.Title.3": "", 
    "Quiek1Gun.Title.4": "", 
    "Quiek1Gun.Title.5": "", 
    "Quiek1Gun.Title.6": "", 
    "RagoZa.CV": "神昌彦", 
    "RagoZa.Name": "ラゴ・ザ", 
    "RagoZa.Title.1": "不屈の竜王", 
    "RagoZa.Title.2": "不屈の竜王+", 
    "RagoZa.Title.3": "真不屈の竜王", 
    "RagoZa.Title.4": "真不屈の竜王+", 
    "RagoZa.Title.5": "聖不屈の竜王", 
    "RagoZa.Title.6": "聖不屈の竜王+", 
    "Rakel.CV": "白川愛実", 
    "Rakel.Name": "ラケル", 
    "Rakel.Title.1": "銃士隊隊長", 
    "Rakel.Title.2": "銃士隊隊長+", 
    "Rakel.Title.3": "真銃士隊隊長", 
    "Rakel.Title.4": "真銃士隊隊長+", 
    "Rakel.Title.5": "聖銃士隊隊長", 
    "Rakel.Title.6": "聖銃士隊隊長+", 
    "Raygle.CV": "福間竣兵", 
    "Raygle.Name": "レイザル", 
    "Raygle.Title.1": "紅蓮の赤龍", 
    "Raygle.Title.2": "紅蓮の赤龍+", 
    "Raygle.Title.3": "真紅蓮の赤龍", 
    "Raygle.Title.4": "真紅蓮の赤龍+", 
    "Raygle.Title.5": "聖紅蓮の赤龍", 
    "Raygle.Title.6": "聖紅蓮の赤龍+", 
    "RedRegaliceratops.CV": "", 
    "RedRegaliceratops.Name": "レッドレガリケラトプス", 
    "RedRegaliceratops.Title.1": "", 
    "RedRegaliceratops.Title.2": "", 
    "RedRegaliceratops.Title.3": "", 
    "RedRegaliceratops.Title.4": "", 
    "RedRegaliceratops.Title.5": "", 
    "RedRegaliceratops.Title.6": "", 
    "Redwolf.CV": "", 
    "Redwolf.Name": "レッドウルフ", 
    "Redwolf.Title.1": "", 
    "Redwolf.Title.2": "", 
    "Redwolf.Title.3": "", 
    "Redwolf.Title.4": "", 
    "Redwolf.Title.5": "", 
    "Redwolf.Title.6": "", 
    "Regaliceratops.CV": "", 
    "Regaliceratops.Name": "レガリケラトプス", 
    "Regaliceratops.Title.1": "", 
    "Regaliceratops.Title.2": "", 
    "Regaliceratops.Title.3": "", 
    "Regaliceratops.Title.4": "", 
    "Regaliceratops.Title.5": "", 
    "Regaliceratops.Title.6": "", 
    "Regigi.CV": "", 
    "Regigi.Name": "レギギ", 
    "Regigi.Title.1": "", 
    "Regigi.Title.2": "", 
    "Regigi.Title.3": "", 
    "Regigi.Title.4": "", 
    "Regigi.Title.5": "", 
    "Regigi.Title.6": "", 
    "RegigigGami.CV": "", 
    "RegigigGami.Name": "レギギ（搭乗中）", 
    "RegigigGami.Title.1": "", 
    "RegigigGami.Title.2": "", 
    "RegigigGami.Title.3": "", 
    "RegigigGami.Title.4": "", 
    "RegigigGami.Title.5": "", 
    "RegigigGami.Title.6": "", 
    "Riccoro.CV": "後藤邑子", 
    "Riccoro.Name": "リッコロ", 
    "Riccoro.Title.1": "気まぐれ軍師", 
    "Riccoro.Title.2": "気まぐれ軍師+", 
    "Riccoro.Title.3": "真気まぐれ軍師", 
    "Riccoro.Title.4": "真気まぐれ軍師+", 
    "Riccoro.Title.5": "聖気まぐれ軍師", 
    "Riccoro.Title.6": "聖気まぐれ軍師+", 
    "Riz.CV": "M・A・O", 
    "Riz.Name": "リズ", 
    "Riz.Title.1": "幻惑の魔女", 
    "Riz.Title.2": "幻惑の魔女+", 
    "Riz.Title.3": "真幻惑の魔女", 
    "Riz.Title.4": "真幻惑の魔女+", 
    "Riz.Title.5": "聖幻惑の魔女", 
    "Riz.Title.6": "聖幻惑の魔女+", 
    "RobotCat.CV": "", 
    "RobotCat.Name": "メカネコ", 
    "RobotCat.Title.1": "", 
    "RobotCat.Title.2": "", 
    "RobotCat.Title.3": "", 
    "RobotCat.Title.4": "", 
    "RobotCat.Title.5": "", 
    "RobotCat.Title.6": "", 
    "RobotLizard.CV": "", 
    "RobotLizard.Name": "メカトカゲ", 
    "RobotLizard.Title.1": "", 
    "RobotLizard.Title.2": "", 
    "RobotLizard.Title.3": "", 
    "RobotLizard.Title.4": "", 
    "RobotLizard.Title.5": "", 
    "RobotLizard.Title.6": "", 
    "RobotMouse.CV": "", 
    "RobotMouse.Name": "メカネズミ", 
    "RobotMouse.Title.1": "", 
    "RobotMouse.Title.2": "", 
    "RobotMouse.Title.3": "", 
    "RobotMouse.Title.4": "", 
    "RobotMouse.Title.5": "", 
    "RobotMouse.Title.6": "", 
    "Sandy.CV": "高宮彩織", 
    "Sandy.Name": "サンディ", 
    "Sandy.Title.1": "貴族隊隊長", 
    "Sandy.Title.2": "貴族隊隊長+", 
    "Sandy.Title.3": "真貴族隊隊長", 
    "Sandy.Title.4": "真貴族隊隊長+", 
    "Sandy.Title.5": "聖貴族隊隊長", 
    "Sandy.Title.6": "聖貴族隊隊長+", 
    "Shadow.CV": "", 
    "Shadow.Name": "シャドー", 
    "Shadow.Title.1": "", 
    "Shadow.Title.2": "", 
    "Shadow.Title.3": "", 
    "Shadow.Title.4": "", 
    "Shadow.Title.5": "", 
    "Shadow.Title.6": "", 
    "Shiera.CV": "七瀬彩夏", 
    "Shiera.Name": "アンシェラ", 
    "Shiera.Title.1": "百中の銃士", 
    "Shiera.Title.2": "百中の銃士+", 
    "Shiera.Title.3": "真百中の銃士", 
    "Shiera.Title.4": "真百中の銃士+", 
    "Shiera.Title.5": "聖百中の銃士", 
    "Shiera.Title.6": "聖百中の銃士+", 
    "TekeTeke.CV": "田島明香里", 
    "TekeTeke.Name": "タタード", 
    "TekeTeke.Title.1": "砂漠のランナー", 
    "TekeTeke.Title.2": "砂漠のランナー+", 
    "TekeTeke.Title.3": "真砂漠のランナー", 
    "TekeTeke.Title.4": "真砂漠のランナー+", 
    "TekeTeke.Title.5": "聖砂漠のランナー", 
    "TekeTeke.Title.6": "聖砂漠のランナー+", 
    "Veil.CV": "神昌彦", 
    "Veil.Name": "ヴェイル", 
    "Veil.Title.1": "無限の求道者", 
    "Veil.Title.2": "無限の求道者+", 
    "Veil.Title.3": "真無限の求道者", 
    "Veil.Title.4": "真無限の求道者+", 
    "Veil.Title.5": "聖無限の求道者", 
    "Veil.Title.6": "聖無限の求道者+", 
    "ZaboWa.CV": "工藤雅久", 
    "ZaboWa.Name": "ザボ・ア", 
    "ZaboWa.Title.1": "不可視の竜将", 
    "ZaboWa.Title.2": "不可視の竜将+", 
    "ZaboWa.Title.3": "真不可視の竜将", 
    "ZaboWa.Title.4": "真不可視の竜将+", 
    "ZaboWa.Title.5": "聖不可視の竜将", 
    "ZaboWa.Title.6": "聖不可視の竜将+", 
    "Zafan.CV": "神昌彦", 
    "Zafan.Name": "ファジム", 
    "Zafan.Title.1": "暴風の翠龍", 
    "Zafan.Title.2": "暴風の翠龍+", 
    "Zafan.Title.3": "真暴風の翠龍", 
    "Zafan.Title.4": "真暴風の翠龍+", 
    "Zafan.Title.5": "聖暴風の翠龍", 
    "Zafan.Title.6": "聖暴風の翠龍+", 
    "Zarazule.CV": "橋本悠平", 
    "Zarazule.Name": "ザラズル", 
    "Zarazule.Title.1": "地獄の番犬", 
    "Zarazule.Title.2": "地獄の番犬+", 
    "Zarazule.Title.3": "真地獄の番犬", 
    "Zarazule.Title.4": "真地獄の番犬+", 
    "Zarazule.Title.5": "聖地獄の番犬", 
    "Zarazule.Title.6": "聖地獄の番犬+", 
    "Zed.CV": "槿原大", 
    "Zed.Name": "ジャレッド", 
    "Zed.Title.1": "放浪の賞金稼ぎ", 
    "Zed.Title.2": "放浪の賞金稼ぎ+", 
    "Zed.Title.3": "真放浪の賞金稼ぎ", 
    "Zed.Title.4": "真放浪の賞金稼ぎ+", 
    "Zed.Title.5": "聖放浪の賞金稼ぎ", 
    "Zed.Title.6": "聖放浪の賞金稼ぎ+", 
    "Zeo.CV": "君嶋哲", 
    "Zeo.Name": "ゼオ", 
    "Zeo.Title.1": "闇人の賢王", 
    "Zeo.Title.2": "闇人の賢王+", 
    "Zeo.Title.3": "真闇人の賢王", 
    "Zeo.Title.4": "真闇人の賢王+", 
    "Zeo.Title.5": "聖闇人の賢王", 
    "Zeo.Title.6": "聖闇人の賢王+"
}