%YAML 1.1
%TAG !u! tag:unity3d.com,2011:
--- !u!114 &11400000
MonoBehaviour:
  m_ObjectHideFlags: 0
  m_PrefabParentObject: {fileID: 0}
  m_PrefabInternal: {fileID: 0}
  m_GameObject: {fileID: 0}
  m_Enabled: 1
  m_EditorHideFlags: 0
  m_Script: {fileID: 11500000, guid: a6b194f808b1af6499c93410e504af42, type: 3}
  m_Name: effect_parts_Atlas
  m_EditorClassIdentifier: 
  atlasFile: {fileID: 4900000, guid: 05c881dadee4b4b88ba8bac57e23b583, type: 3}
  materials:
  - {fileID: 2100000, guid: e64504f1d57a14550b744586e4ef4f59, type: 2}
