%YAML 1.1
%TAG !u! tag:unity3d.com,2011:
--- !u!114 &11400000
MonoBehaviour:
  m_ObjectHideFlags: 0
  m_PrefabParentObject: {fileID: 0}
  m_PrefabInternal: {fileID: 0}
  m_GameObject: {fileID: 0}
  m_Enabled: 1
  m_EditorHideFlags: 0
  m_Script: {fileID: 11500000, guid: f1b3b4b945939a54ea0b23d3396115fb, type: 3}
  m_Name: garg_SkeletonData
  m_EditorClassIdentifier: 
  atlasAssets:
  - {fileID: 11400000, guid: 39aac8a78632a40af832c4bf949b7158, type: 2}
  - {fileID: 11400000, guid: e66fe23cb98294f2e8c2d320a9f46701, type: 2}
  skeletonJSON: {fileID: 4900000, guid: a522f92a9217f412eb12aa4795961ec1, type: 3}
  scale: 0.01
  fromAnimation: []
  toAnimation: []
  duration: []
  defaultMix: 0
  controller: {fileID: 0}
