%YAML 1.1
%TAG !u! tag:unity3d.com,2011:
--- !u!114 &11400000
MonoBehaviour:
  m_ObjectHideFlags: 0
  m_PrefabParentObject: {fileID: 0}
  m_PrefabInternal: {fileID: 0}
  m_GameObject: {fileID: 0}
  m_Enabled: 1
  m_EditorHideFlags: 0
  m_Script: {fileID: 11500000, guid: a6b194f808b1af6499c93410e504af42, type: 3}
  m_Name: effect_parts_Atlas
  m_EditorClassIdentifier: 
  atlasFile: {fileID: 4900000, guid: ce228dd23a909412081e6f249978643a, type: 3}
  materials:
  - {fileID: 2100000, guid: 1d37ca2e920fe471092f3809fd32df31, type: 2}
