%YAML 1.1
%TAG !u! tag:unity3d.com,2011:
--- !u!1 &176126
GameObject:
  m_ObjectHideFlags: 0
  m_PrefabParentObject: {fileID: 0}
  m_PrefabInternal: {fileID: 100100000}
  serializedVersion: 4
  m_Component:
  - 4: {fileID: 425658}
  - 33: {fileID: 3379576}
  - 23: {fileID: 2359180}
  - 114: {fileID: 11416866}
  m_Layer: 0
  m_Name: Layer1
  m_TagString: Untagged
  m_Icon: {fileID: 0}
  m_NavMeshLayer: 0
  m_StaticEditorFlags: 0
  m_IsActive: 1
--- !u!1 &179450
GameObject:
  m_ObjectHideFlags: 0
  m_PrefabParentObject: {fileID: 0}
  m_PrefabInternal: {fileID: 100100000}
  serializedVersion: 4
  m_Component:
  - 4: {fileID: 464474}
  - 114: {fileID: 11455016}
  m_Layer: 0
  m_Name: Action
  m_TagString: Untagged
  m_Icon: {fileID: 0}
  m_NavMeshLayer: 0
  m_StaticEditorFlags: 0
  m_IsActive: 1
--- !u!4 &425658
Transform:
  m_ObjectHideFlags: 1
  m_PrefabParentObject: {fileID: 0}
  m_PrefabInternal: {fileID: 100100000}
  m_GameObject: {fileID: 176126}
  m_LocalRotation: {x: 0, y: 0, z: 0, w: 1}
  m_LocalPosition: {x: 0, y: 0, z: 0}
  m_LocalScale: {x: 1, y: 1, z: 1}
  m_Children: []
  m_Father: {fileID: 464474}
  m_RootOrder: 0
--- !u!4 &464474
Transform:
  m_ObjectHideFlags: 1
  m_PrefabParentObject: {fileID: 0}
  m_PrefabInternal: {fileID: 100100000}
  m_GameObject: {fileID: 179450}
  m_LocalRotation: {x: 0, y: 0, z: 0, w: 1}
  m_LocalPosition: {x: 0, y: 0, z: 0}
  m_LocalScale: {x: 1, y: 1, z: 1}
  m_Children:
  - {fileID: 425658}
  m_Father: {fileID: 0}
  m_RootOrder: 0
--- !u!23 &2359180
MeshRenderer:
  m_ObjectHideFlags: 1
  m_PrefabParentObject: {fileID: 0}
  m_PrefabInternal: {fileID: 100100000}
  m_GameObject: {fileID: 176126}
  m_Enabled: 1
  m_CastShadows: 1
  m_ReceiveShadows: 1
  m_Materials:
  - {fileID: 0}
  m_SubsetIndices: 
  m_StaticBatchRoot: {fileID: 0}
  m_UseLightProbes: 1
  m_ReflectionProbeUsage: 1
  m_ProbeAnchor: {fileID: 0}
  m_ScaleInLightmap: 1
  m_PreserveUVs: 0
  m_IgnoreNormalsForChartDetection: 0
  m_ImportantGI: 0
  m_MinimumChartSize: 4
  m_AutoUVMaxDistance: 0.5
  m_AutoUVMaxAngle: 89
  m_LightmapParameters: {fileID: 0}
  m_SortingLayerID: 0
  m_SortingOrder: 0
--- !u!33 &3379576
MeshFilter:
  m_ObjectHideFlags: 1
  m_PrefabParentObject: {fileID: 0}
  m_PrefabInternal: {fileID: 100100000}
  m_GameObject: {fileID: 176126}
  m_Mesh: {fileID: 0}
--- !u!114 &11416866
MonoBehaviour:
  m_ObjectHideFlags: 1
  m_PrefabParentObject: {fileID: 0}
  m_PrefabInternal: {fileID: 100100000}
  m_GameObject: {fileID: 176126}
  m_Enabled: 1
  m_EditorHideFlags: 0
  m_Script: {fileID: 11500000, guid: d247ba06193faa74d9335f5481b2b56c, type: 3}
  m_Name: 
  m_EditorClassIdentifier: 
  skeletonDataAsset: {fileID: 11400000, guid: 68d8af0e247f34ea5af92ac85f1b87ce, type: 2}
  initialSkinName: default
  calculateNormals: 0
  calculateTangents: 0
  zSpacing: 0
  renderMeshes: 1
  immutableTriangles: 0
  frontFacing: 0
  logErrors: 0
  submeshSeparators: []
  timeScale: 1
  loop: 0
  _animationName: p_skill1
--- !u!114 &11455016
MonoBehaviour:
  m_ObjectHideFlags: 1
  m_PrefabParentObject: {fileID: 0}
  m_PrefabInternal: {fileID: 100100000}
  m_GameObject: {fileID: 179450}
  m_Enabled: 1
  m_EditorHideFlags: 0
  m_Script: {fileID: 11500000, guid: f434db8ade72f4f81aa97e19bbc43592, type: 3}
  m_Name: 
  m_EditorClassIdentifier: 
  _debugLog: 0
  _unreversibleTransforms: []
  _action1AsynchronousMoveParam:
    _useAngle: 1
    _isExitPostProcess: 1
    _moveType: 1
    _duration: 1
    _positionType: 1
    _upperPositionWithParabola: 5
    _upperPosition: 0
    _horizontalEasing: 1
    _verticalEasing: 1
    _verticalInEasing: 1
    _verticalOutEasing: 1
    _sortingLayerSettings: []
  _action2AsynchronousMoveParam:
    _useAngle: 1
    _isExitPostProcess: 1
    _moveType: 1
    _duration: 1
    _positionType: 1
    _upperPositionWithParabola: 5
    _upperPosition: 0
    _horizontalEasing: 1
    _verticalEasing: 1
    _verticalInEasing: 1
    _verticalOutEasing: 1
    _sortingLayerSettings: []
  _action3AsynchronousMoveParam:
    _useAngle: 0
    _isExitPostProcess: 1
    _moveType: 1
    _duration: 1
    _positionType: 1
    _upperPositionWithParabola: 0
    _upperPosition: 0
    _horizontalEasing: 1
    _verticalEasing: 1
    _verticalInEasing: 1
    _verticalOutEasing: 1
    _sortingLayerSettings:
    - _meshRenderer: {fileID: 2359180}
      _layerName: Default
      _relativeSortingOrder: 0
  _action4AsynchronousMoveParam:
    _useAngle: 1
    _isExitPostProcess: 1
    _moveType: 1
    _duration: 1
    _positionType: 1
    _upperPositionWithParabola: 5
    _upperPosition: 0
    _horizontalEasing: 1
    _verticalEasing: 1
    _verticalInEasing: 1
    _verticalOutEasing: 1
    _sortingLayerSettings: []
  _action5AsynchronousMoveParam:
    _useAngle: 1
    _isExitPostProcess: 1
    _moveType: 1
    _duration: 1
    _positionType: 1
    _upperPositionWithParabola: 5
    _upperPosition: 0
    _horizontalEasing: 1
    _verticalEasing: 1
    _verticalInEasing: 1
    _verticalOutEasing: 1
    _sortingLayerSettings: []
--- !u!1001 &100100000
Prefab:
  m_ObjectHideFlags: 1
  serializedVersion: 2
  m_Modification:
    m_TransformParent: {fileID: 0}
    m_Modifications:
    - target: {fileID: 0}
      propertyPath: _dynamicRenderers.Array.size
      value: 1
      objectReference: {fileID: 0}
    - target: {fileID: 0}
      propertyPath: _sortingOrderSetting.Array.size
      value: 0
      objectReference: {fileID: 0}
    - target: {fileID: 0}
      propertyPath: _unreversibleTransforms.Array.size
      value: 0
      objectReference: {fileID: 0}
    - target: {fileID: 0}
      propertyPath: _action2AsynchronousMoveParam._sortingLayerSettings.Array.size
      value: 2
      objectReference: {fileID: 0}
    - target: {fileID: 0}
      propertyPath: _action3AsynchronousMoveParam._sortingLayerSettings.Array.size
      value: 2
      objectReference: {fileID: 0}
    - target: {fileID: 0}
      propertyPath: _action4AsynchronousMoveParam._sortingLayerSettings.Array.size
      value: 2
      objectReference: {fileID: 0}
    - target: {fileID: 0}
      propertyPath: _sortingOrderSetting.Array.data[0].MeshRenderer
      value: 
      objectReference: {fileID: 0}
    - target: {fileID: 0}
      propertyPath: _sortingOrderSetting.Array.data[0].RelativeSortingOrder
      value: 0
      objectReference: {fileID: 0}
    - target: {fileID: 0}
      propertyPath: m_SortingLayerID
      value: 1635252233
      objectReference: {fileID: 0}
    - target: {fileID: 0}
      propertyPath: _moveType
      value: 1
      objectReference: {fileID: 0}
    - target: {fileID: 0}
      propertyPath: skeletonDataAsset
      value: 
      objectReference: {fileID: 11400000, guid: 68d8af0e247f34ea5af92ac85f1b87ce,
        type: 2}
    - target: {fileID: 0}
      propertyPath: _action1MoveType
      value: 1
      objectReference: {fileID: 0}
    - target: {fileID: 0}
      propertyPath: _action2MoveType
      value: 1
      objectReference: {fileID: 0}
    - target: {fileID: 0}
      propertyPath: _action3MoveType
      value: 1
      objectReference: {fileID: 0}
    - target: {fileID: 0}
      propertyPath: _action4MoveType
      value: 1
      objectReference: {fileID: 0}
    - target: {fileID: 0}
      propertyPath: _action5MoveType
      value: 1
      objectReference: {fileID: 0}
    - target: {fileID: 0}
      propertyPath: m_Enabled
      value: 1
      objectReference: {fileID: 0}
    - target: {fileID: 0}
      propertyPath: _debugLog
      value: 0
      objectReference: {fileID: 0}
    - target: {fileID: 0}
      propertyPath: _action2AsynchronousMoveParam._sortingLayerSettings.Array.data[1]._layerName
      value: Foreground
      objectReference: {fileID: 0}
    - target: {fileID: 0}
      propertyPath: _action2AsynchronousMoveParam._sortingLayerSettings.Array.data[0]._meshRenderer
      value: 
      objectReference: {fileID: 2359180}
    - target: {fileID: 0}
      propertyPath: _action2AsynchronousMoveParam._sortingLayerSettings.Array.data[1]._meshRenderer
      value: 
      objectReference: {fileID: 0}
    - target: {fileID: 0}
      propertyPath: _action2AsynchronousMoveParam._sortingLayerSettings.Array.data[0]._layerName
      value: Background
      objectReference: {fileID: 0}
    - target: {fileID: 0}
      propertyPath: _action3AsynchronousMoveParam._sortingLayerSettings.Array.data[1]._layerName
      value: Foreground
      objectReference: {fileID: 0}
    - target: {fileID: 0}
      propertyPath: _action3AsynchronousMoveParam._sortingLayerSettings.Array.data[0]._meshRenderer
      value: 
      objectReference: {fileID: 2359180}
    - target: {fileID: 0}
      propertyPath: _action3AsynchronousMoveParam._sortingLayerSettings.Array.data[1]._meshRenderer
      value: 
      objectReference: {fileID: 0}
    - target: {fileID: 0}
      propertyPath: _action3AsynchronousMoveParam._sortingLayerSettings.Array.data[0]._layerName
      value: Background
      objectReference: {fileID: 0}
    - target: {fileID: 0}
      propertyPath: _action4AsynchronousMoveParam._sortingLayerSettings.Array.data[0]._layerName
      value: Background
      objectReference: {fileID: 0}
    - target: {fileID: 0}
      propertyPath: _action4AsynchronousMoveParam._sortingLayerSettings.Array.data[1]._layerName
      value: Foreground
      objectReference: {fileID: 0}
    - target: {fileID: 0}
      propertyPath: _action4AsynchronousMoveParam._sortingLayerSettings.Array.data[0]._meshRenderer
      value: 
      objectReference: {fileID: 2359180}
    - target: {fileID: 0}
      propertyPath: _action4AsynchronousMoveParam._sortingLayerSettings.Array.data[1]._meshRenderer
      value: 
      objectReference: {fileID: 0}
    - target: {fileID: 0}
      propertyPath: _action2AsynchronousMoveParam._sortingLayerSettings.Array.data[1]._relativeSortingOrder
      value: -10
      objectReference: {fileID: 0}
    m_RemovedComponents: []
  m_ParentPrefab: {fileID: 0}
  m_RootGameObject: {fileID: 179450}
  m_IsPrefabParent: 1
