%YAML 1.1
%TAG !u! tag:unity3d.com,2011:
--- !u!114 &11400000
MonoBehaviour:
  m_ObjectHideFlags: 0
  m_PrefabParentObject: {fileID: 0}
  m_PrefabInternal: {fileID: 0}
  m_GameObject: {fileID: 0}
  m_Enabled: 1
  m_EditorHideFlags: 0
  m_Script: {fileID: 11500000, guid: f1b3b4b945939a54ea0b23d3396115fb, type: 3}
  m_Name: michet_SkeletonData
  m_EditorClassIdentifier: 
  atlasAssets:
  - {fileID: 11400000, guid: 020e28a0f7a0d4ab5b959ff2ee417791, type: 2}
  - {fileID: 11400000, guid: d04a525b47e164d349986fe2bd4419a3, type: 2}
  skeletonJSON: {fileID: 4900000, guid: 2fdcc050e24eb4982ad1b33b33e97766, type: 3}
  scale: 0.01
  fromAnimation: []
  toAnimation: []
  duration: []
  defaultMix: 0
  controller: {fileID: 0}
