%YAML 1.1
%TAG !u! tag:unity3d.com,2011:
--- !u!74 &7400000
AnimationClip:
  m_ObjectHideFlags: 0
  m_PrefabParentObject: {fileID: 0}
  m_PrefabInternal: {fileID: 0}
  m_Name: gobrin Animation B
  serializedVersion: 6
  m_Legacy: 0
  m_Compressed: 0
  m_UseHighQualityCurve: 1
  m_RotationCurves: []
  m_CompressedRotationCurves: []
  m_EulerCurves: []
  m_PositionCurves:
  - curve:
      serializedVersion: 2
      m_Curve:
      - time: 0
        value: {x: 0, y: 0, z: 0}
        inSlope: {x: -1.8445715, y: 0, z: 0}
        outSlope: {x: -1.8445715, y: 0, z: 0}
        tangentMode: 0
      - time: 2.9166667
        value: {x: -5.38, y: 0, z: 0}
        inSlope: {x: -1.8445715, y: 0, z: 0}
        outSlope: {x: -1.8445715, y: 0, z: 0}
        tangentMode: 0
      m_PreInfinity: 2
      m_PostInfinity: 2
      m_RotationOrder: 4
    path: 
  m_ScaleCurves: []
  m_FloatCurves:
  - curve:
      serializedVersion: 2
      m_Curve:
      - time: 0
        value: 0
        inSlope: Infinity
        outSlope: Infinity
        tangentMode: 31
      m_PreInfinity: 2
      m_PostInfinity: 2
      m_RotationOrder: 4
    attribute: m_FlipX
    path: 
    classID: 212
    script: {fileID: 0}
  - curve:
      serializedVersion: 2
      m_Curve:
      - time: 0
        value: 0
        inSlope: 4
        outSlope: 4
        tangentMode: 10
      - time: 0.25
        value: 1
        inSlope: 2
        outSlope: 2
        tangentMode: 10
      - time: 2.65
        value: 1
        inSlope: -1.8750001
        outSlope: -1.8750001
        tangentMode: 10
      - time: 2.9166667
        value: 0
        inSlope: -3.7500002
        outSlope: -3.7500002
        tangentMode: 10
      m_PreInfinity: 2
      m_PostInfinity: 2
      m_RotationOrder: 4
    attribute: m_Color.a
    path: 
    classID: 212
    script: {fileID: 0}
  m_PPtrCurves:
  - curve:
    - time: 0
      value: {fileID: 21300000, guid: 30428546bda4c45e8a1bda04ebf9b317, type: 3}
    - time: 0.016666668
      value: {fileID: 21300000, guid: c363f5ddcc98546f99c37a6f74c9555f, type: 3}
    - time: 0.033333335
      value: {fileID: 21300000, guid: 26dd5871c650c41bead763cc3ca9dc6b, type: 3}
    - time: 0.05
      value: {fileID: 21300000, guid: 82ced44a5ce7544d3a3fcecb8b9576ae, type: 3}
    - time: 0.06666667
      value: {fileID: 21300000, guid: 422519d689cb34942af21a90286533a9, type: 3}
    - time: 0.083333336
      value: {fileID: 21300000, guid: 82fb7a2f980f94143b7c2f2b351bf323, type: 3}
    - time: 0.1
      value: {fileID: 21300000, guid: 3355c2ded805c4412ad47ed30df1d04e, type: 3}
    - time: 0.11666667
      value: {fileID: 21300000, guid: f152e6ceb06e04fcc99f8d7d59f0c703, type: 3}
    - time: 0.13333334
      value: {fileID: 21300000, guid: 30428546bda4c45e8a1bda04ebf9b317, type: 3}
    - time: 0.15
      value: {fileID: 21300000, guid: c363f5ddcc98546f99c37a6f74c9555f, type: 3}
    - time: 0.16666667
      value: {fileID: 21300000, guid: 26dd5871c650c41bead763cc3ca9dc6b, type: 3}
    - time: 0.18333334
      value: {fileID: 21300000, guid: 82ced44a5ce7544d3a3fcecb8b9576ae, type: 3}
    - time: 0.20000002
      value: {fileID: 21300000, guid: 422519d689cb34942af21a90286533a9, type: 3}
    - time: 0.21666667
      value: {fileID: 21300000, guid: 82fb7a2f980f94143b7c2f2b351bf323, type: 3}
    - time: 0.23333335
      value: {fileID: 21300000, guid: 3355c2ded805c4412ad47ed30df1d04e, type: 3}
    - time: 0.25
      value: {fileID: 21300000, guid: f152e6ceb06e04fcc99f8d7d59f0c703, type: 3}
    - time: 0.26666668
      value: {fileID: 21300000, guid: 30428546bda4c45e8a1bda04ebf9b317, type: 3}
    - time: 0.28333336
      value: {fileID: 21300000, guid: c363f5ddcc98546f99c37a6f74c9555f, type: 3}
    - time: 0.3
      value: {fileID: 21300000, guid: 26dd5871c650c41bead763cc3ca9dc6b, type: 3}
    - time: 0.3166667
      value: {fileID: 21300000, guid: 82ced44a5ce7544d3a3fcecb8b9576ae, type: 3}
    - time: 0.33333334
      value: {fileID: 21300000, guid: 422519d689cb34942af21a90286533a9, type: 3}
    - time: 0.35000002
      value: {fileID: 21300000, guid: 82fb7a2f980f94143b7c2f2b351bf323, type: 3}
    - time: 0.36666667
      value: {fileID: 21300000, guid: 3355c2ded805c4412ad47ed30df1d04e, type: 3}
    - time: 0.38333336
      value: {fileID: 21300000, guid: f152e6ceb06e04fcc99f8d7d59f0c703, type: 3}
    - time: 0.40000004
      value: {fileID: 21300000, guid: 30428546bda4c45e8a1bda04ebf9b317, type: 3}
    - time: 0.4166667
      value: {fileID: 21300000, guid: c363f5ddcc98546f99c37a6f74c9555f, type: 3}
    - time: 0.43333334
      value: {fileID: 21300000, guid: 26dd5871c650c41bead763cc3ca9dc6b, type: 3}
    - time: 0.45000002
      value: {fileID: 21300000, guid: 82ced44a5ce7544d3a3fcecb8b9576ae, type: 3}
    - time: 0.4666667
      value: {fileID: 21300000, guid: 422519d689cb34942af21a90286533a9, type: 3}
    - time: 0.48333335
      value: {fileID: 21300000, guid: 82fb7a2f980f94143b7c2f2b351bf323, type: 3}
    - time: 0.5
      value: {fileID: 21300000, guid: 3355c2ded805c4412ad47ed30df1d04e, type: 3}
    - time: 0.51666665
      value: {fileID: 21300000, guid: f152e6ceb06e04fcc99f8d7d59f0c703, type: 3}
    - time: 0.53333336
      value: {fileID: 21300000, guid: 30428546bda4c45e8a1bda04ebf9b317, type: 3}
    - time: 0.55
      value: {fileID: 21300000, guid: c363f5ddcc98546f99c37a6f74c9555f, type: 3}
    - time: 0.5666667
      value: {fileID: 21300000, guid: 26dd5871c650c41bead763cc3ca9dc6b, type: 3}
    - time: 0.5833334
      value: {fileID: 21300000, guid: 82ced44a5ce7544d3a3fcecb8b9576ae, type: 3}
    - time: 0.6
      value: {fileID: 21300000, guid: 422519d689cb34942af21a90286533a9, type: 3}
    - time: 0.6166667
      value: {fileID: 21300000, guid: 82fb7a2f980f94143b7c2f2b351bf323, type: 3}
    - time: 0.6333334
      value: {fileID: 21300000, guid: 3355c2ded805c4412ad47ed30df1d04e, type: 3}
    - time: 0.65000004
      value: {fileID: 21300000, guid: f152e6ceb06e04fcc99f8d7d59f0c703, type: 3}
    - time: 0.6666667
      value: {fileID: 21300000, guid: 30428546bda4c45e8a1bda04ebf9b317, type: 3}
    - time: 0.6833334
      value: {fileID: 21300000, guid: c363f5ddcc98546f99c37a6f74c9555f, type: 3}
    - time: 0.70000005
      value: {fileID: 21300000, guid: 26dd5871c650c41bead763cc3ca9dc6b, type: 3}
    - time: 0.7166667
      value: {fileID: 21300000, guid: 82ced44a5ce7544d3a3fcecb8b9576ae, type: 3}
    - time: 0.73333335
      value: {fileID: 21300000, guid: 422519d689cb34942af21a90286533a9, type: 3}
    - time: 0.75
      value: {fileID: 21300000, guid: 82fb7a2f980f94143b7c2f2b351bf323, type: 3}
    - time: 0.7666667
      value: {fileID: 21300000, guid: 3355c2ded805c4412ad47ed30df1d04e, type: 3}
    - time: 0.78333336
      value: {fileID: 21300000, guid: f152e6ceb06e04fcc99f8d7d59f0c703, type: 3}
    - time: 0.8
      value: {fileID: 21300000, guid: 30428546bda4c45e8a1bda04ebf9b317, type: 3}
    - time: 0.81666666
      value: {fileID: 21300000, guid: c363f5ddcc98546f99c37a6f74c9555f, type: 3}
    - time: 0.8333334
      value: {fileID: 21300000, guid: 26dd5871c650c41bead763cc3ca9dc6b, type: 3}
    - time: 0.85
      value: {fileID: 21300000, guid: 82ced44a5ce7544d3a3fcecb8b9576ae, type: 3}
    - time: 0.8666667
      value: {fileID: 21300000, guid: 422519d689cb34942af21a90286533a9, type: 3}
    - time: 0.8833333
      value: {fileID: 21300000, guid: 82fb7a2f980f94143b7c2f2b351bf323, type: 3}
    - time: 0.90000004
      value: {fileID: 21300000, guid: 3355c2ded805c4412ad47ed30df1d04e, type: 3}
    - time: 0.9166667
      value: {fileID: 21300000, guid: f152e6ceb06e04fcc99f8d7d59f0c703, type: 3}
    - time: 0.93333334
      value: {fileID: 21300000, guid: 30428546bda4c45e8a1bda04ebf9b317, type: 3}
    - time: 0.95000005
      value: {fileID: 21300000, guid: c363f5ddcc98546f99c37a6f74c9555f, type: 3}
    - time: 0.9666667
      value: {fileID: 21300000, guid: 26dd5871c650c41bead763cc3ca9dc6b, type: 3}
    - time: 0.98333335
      value: {fileID: 21300000, guid: 82ced44a5ce7544d3a3fcecb8b9576ae, type: 3}
    - time: 1
      value: {fileID: 21300000, guid: 422519d689cb34942af21a90286533a9, type: 3}
    - time: 1.0166667
      value: {fileID: 21300000, guid: 82fb7a2f980f94143b7c2f2b351bf323, type: 3}
    - time: 1.0333333
      value: {fileID: 21300000, guid: 3355c2ded805c4412ad47ed30df1d04e, type: 3}
    - time: 1.05
      value: {fileID: 21300000, guid: f152e6ceb06e04fcc99f8d7d59f0c703, type: 3}
    - time: 1.0666667
      value: {fileID: 21300000, guid: 30428546bda4c45e8a1bda04ebf9b317, type: 3}
    - time: 1.0833334
      value: {fileID: 21300000, guid: c363f5ddcc98546f99c37a6f74c9555f, type: 3}
    - time: 1.1
      value: {fileID: 21300000, guid: 26dd5871c650c41bead763cc3ca9dc6b, type: 3}
    - time: 1.1166667
      value: {fileID: 21300000, guid: 82ced44a5ce7544d3a3fcecb8b9576ae, type: 3}
    - time: 1.1333334
      value: {fileID: 21300000, guid: 422519d689cb34942af21a90286533a9, type: 3}
    - time: 1.1500001
      value: {fileID: 21300000, guid: 82fb7a2f980f94143b7c2f2b351bf323, type: 3}
    - time: 1.1666667
      value: {fileID: 21300000, guid: 3355c2ded805c4412ad47ed30df1d04e, type: 3}
    - time: 1.1833334
      value: {fileID: 21300000, guid: f152e6ceb06e04fcc99f8d7d59f0c703, type: 3}
    - time: 1.2
      value: {fileID: 21300000, guid: 30428546bda4c45e8a1bda04ebf9b317, type: 3}
    - time: 1.2166667
      value: {fileID: 21300000, guid: c363f5ddcc98546f99c37a6f74c9555f, type: 3}
    - time: 1.2333333
      value: {fileID: 21300000, guid: 26dd5871c650c41bead763cc3ca9dc6b, type: 3}
    - time: 1.25
      value: {fileID: 21300000, guid: 82ced44a5ce7544d3a3fcecb8b9576ae, type: 3}
    - time: 1.2666668
      value: {fileID: 21300000, guid: 422519d689cb34942af21a90286533a9, type: 3}
    - time: 1.2833334
      value: {fileID: 21300000, guid: 82fb7a2f980f94143b7c2f2b351bf323, type: 3}
    - time: 1.3000001
      value: {fileID: 21300000, guid: 3355c2ded805c4412ad47ed30df1d04e, type: 3}
    - time: 1.3166667
      value: {fileID: 21300000, guid: f152e6ceb06e04fcc99f8d7d59f0c703, type: 3}
    - time: 1.3333334
      value: {fileID: 21300000, guid: 30428546bda4c45e8a1bda04ebf9b317, type: 3}
    - time: 1.35
      value: {fileID: 21300000, guid: c363f5ddcc98546f99c37a6f74c9555f, type: 3}
    - time: 1.3666667
      value: {fileID: 21300000, guid: 26dd5871c650c41bead763cc3ca9dc6b, type: 3}
    - time: 1.3833333
      value: {fileID: 21300000, guid: 82ced44a5ce7544d3a3fcecb8b9576ae, type: 3}
    - time: 1.4000001
      value: {fileID: 21300000, guid: 422519d689cb34942af21a90286533a9, type: 3}
    - time: 1.4166667
      value: {fileID: 21300000, guid: 82fb7a2f980f94143b7c2f2b351bf323, type: 3}
    - time: 1.4333334
      value: {fileID: 21300000, guid: 3355c2ded805c4412ad47ed30df1d04e, type: 3}
    - time: 1.45
      value: {fileID: 21300000, guid: f152e6ceb06e04fcc99f8d7d59f0c703, type: 3}
    - time: 1.4666667
      value: {fileID: 21300000, guid: 30428546bda4c45e8a1bda04ebf9b317, type: 3}
    - time: 1.4833333
      value: {fileID: 21300000, guid: c363f5ddcc98546f99c37a6f74c9555f, type: 3}
    - time: 1.5
      value: {fileID: 21300000, guid: 26dd5871c650c41bead763cc3ca9dc6b, type: 3}
    - time: 1.5166667
      value: {fileID: 21300000, guid: 82ced44a5ce7544d3a3fcecb8b9576ae, type: 3}
    - time: 1.5333334
      value: {fileID: 21300000, guid: 422519d689cb34942af21a90286533a9, type: 3}
    - time: 1.5500001
      value: {fileID: 21300000, guid: 82fb7a2f980f94143b7c2f2b351bf323, type: 3}
    - time: 1.5666667
      value: {fileID: 21300000, guid: 3355c2ded805c4412ad47ed30df1d04e, type: 3}
    - time: 1.5833334
      value: {fileID: 21300000, guid: f152e6ceb06e04fcc99f8d7d59f0c703, type: 3}
    - time: 1.6
      value: {fileID: 21300000, guid: 30428546bda4c45e8a1bda04ebf9b317, type: 3}
    - time: 1.6166667
      value: {fileID: 21300000, guid: c363f5ddcc98546f99c37a6f74c9555f, type: 3}
    - time: 1.6333333
      value: {fileID: 21300000, guid: 26dd5871c650c41bead763cc3ca9dc6b, type: 3}
    - time: 1.65
      value: {fileID: 21300000, guid: 82ced44a5ce7544d3a3fcecb8b9576ae, type: 3}
    - time: 1.6666667
      value: {fileID: 21300000, guid: 422519d689cb34942af21a90286533a9, type: 3}
    - time: 1.6833334
      value: {fileID: 21300000, guid: 82fb7a2f980f94143b7c2f2b351bf323, type: 3}
    - time: 1.7
      value: {fileID: 21300000, guid: 3355c2ded805c4412ad47ed30df1d04e, type: 3}
    - time: 1.7166667
      value: {fileID: 21300000, guid: f152e6ceb06e04fcc99f8d7d59f0c703, type: 3}
    - time: 1.7333333
      value: {fileID: 21300000, guid: 30428546bda4c45e8a1bda04ebf9b317, type: 3}
    - time: 1.75
      value: {fileID: 21300000, guid: c363f5ddcc98546f99c37a6f74c9555f, type: 3}
    - time: 1.7666667
      value: {fileID: 21300000, guid: 26dd5871c650c41bead763cc3ca9dc6b, type: 3}
    - time: 1.7833333
      value: {fileID: 21300000, guid: 82ced44a5ce7544d3a3fcecb8b9576ae, type: 3}
    - time: 1.8000001
      value: {fileID: 21300000, guid: 422519d689cb34942af21a90286533a9, type: 3}
    - time: 1.8166667
      value: {fileID: 21300000, guid: 82fb7a2f980f94143b7c2f2b351bf323, type: 3}
    - time: 1.8333334
      value: {fileID: 21300000, guid: 3355c2ded805c4412ad47ed30df1d04e, type: 3}
    - time: 1.85
      value: {fileID: 21300000, guid: f152e6ceb06e04fcc99f8d7d59f0c703, type: 3}
    - time: 1.8666667
      value: {fileID: 21300000, guid: 30428546bda4c45e8a1bda04ebf9b317, type: 3}
    - time: 1.8833333
      value: {fileID: 21300000, guid: c363f5ddcc98546f99c37a6f74c9555f, type: 3}
    - time: 1.9
      value: {fileID: 21300000, guid: 26dd5871c650c41bead763cc3ca9dc6b, type: 3}
    - time: 1.9166666
      value: {fileID: 21300000, guid: 82ced44a5ce7544d3a3fcecb8b9576ae, type: 3}
    - time: 1.9333334
      value: {fileID: 21300000, guid: 422519d689cb34942af21a90286533a9, type: 3}
    - time: 1.95
      value: {fileID: 21300000, guid: 82fb7a2f980f94143b7c2f2b351bf323, type: 3}
    - time: 1.9666667
      value: {fileID: 21300000, guid: 3355c2ded805c4412ad47ed30df1d04e, type: 3}
    - time: 1.9833333
      value: {fileID: 21300000, guid: f152e6ceb06e04fcc99f8d7d59f0c703, type: 3}
    - time: 2
      value: {fileID: 21300000, guid: 30428546bda4c45e8a1bda04ebf9b317, type: 3}
    - time: 2.0166667
      value: {fileID: 21300000, guid: c363f5ddcc98546f99c37a6f74c9555f, type: 3}
    - time: 2.0333333
      value: {fileID: 21300000, guid: 26dd5871c650c41bead763cc3ca9dc6b, type: 3}
    - time: 2.05
      value: {fileID: 21300000, guid: 82ced44a5ce7544d3a3fcecb8b9576ae, type: 3}
    - time: 2.0666666
      value: {fileID: 21300000, guid: 422519d689cb34942af21a90286533a9, type: 3}
    - time: 2.0833333
      value: {fileID: 21300000, guid: 82fb7a2f980f94143b7c2f2b351bf323, type: 3}
    - time: 2.1
      value: {fileID: 21300000, guid: 3355c2ded805c4412ad47ed30df1d04e, type: 3}
    - time: 2.1166668
      value: {fileID: 21300000, guid: f152e6ceb06e04fcc99f8d7d59f0c703, type: 3}
    - time: 2.1333334
      value: {fileID: 21300000, guid: 30428546bda4c45e8a1bda04ebf9b317, type: 3}
    - time: 2.15
      value: {fileID: 21300000, guid: c363f5ddcc98546f99c37a6f74c9555f, type: 3}
    - time: 2.1666667
      value: {fileID: 21300000, guid: 26dd5871c650c41bead763cc3ca9dc6b, type: 3}
    - time: 2.1833334
      value: {fileID: 21300000, guid: 82ced44a5ce7544d3a3fcecb8b9576ae, type: 3}
    - time: 2.2
      value: {fileID: 21300000, guid: 422519d689cb34942af21a90286533a9, type: 3}
    - time: 2.2166667
      value: {fileID: 21300000, guid: 82fb7a2f980f94143b7c2f2b351bf323, type: 3}
    - time: 2.2333333
      value: {fileID: 21300000, guid: 3355c2ded805c4412ad47ed30df1d04e, type: 3}
    - time: 2.25
      value: {fileID: 21300000, guid: f152e6ceb06e04fcc99f8d7d59f0c703, type: 3}
    - time: 2.266667
      value: {fileID: 21300000, guid: 30428546bda4c45e8a1bda04ebf9b317, type: 3}
    - time: 2.2833335
      value: {fileID: 21300000, guid: c363f5ddcc98546f99c37a6f74c9555f, type: 3}
    - time: 2.3000002
      value: {fileID: 21300000, guid: 26dd5871c650c41bead763cc3ca9dc6b, type: 3}
    - time: 2.3166668
      value: {fileID: 21300000, guid: 82ced44a5ce7544d3a3fcecb8b9576ae, type: 3}
    - time: 2.3333335
      value: {fileID: 21300000, guid: 422519d689cb34942af21a90286533a9, type: 3}
    - time: 2.3500001
      value: {fileID: 21300000, guid: 82fb7a2f980f94143b7c2f2b351bf323, type: 3}
    - time: 2.3666668
      value: {fileID: 21300000, guid: 3355c2ded805c4412ad47ed30df1d04e, type: 3}
    - time: 2.3833334
      value: {fileID: 21300000, guid: f152e6ceb06e04fcc99f8d7d59f0c703, type: 3}
    - time: 2.4
      value: {fileID: 21300000, guid: 30428546bda4c45e8a1bda04ebf9b317, type: 3}
    - time: 2.4166667
      value: {fileID: 21300000, guid: c363f5ddcc98546f99c37a6f74c9555f, type: 3}
    - time: 2.4333334
      value: {fileID: 21300000, guid: 26dd5871c650c41bead763cc3ca9dc6b, type: 3}
    - time: 2.45
      value: {fileID: 21300000, guid: 82ced44a5ce7544d3a3fcecb8b9576ae, type: 3}
    - time: 2.4666667
      value: {fileID: 21300000, guid: 422519d689cb34942af21a90286533a9, type: 3}
    - time: 2.4833333
      value: {fileID: 21300000, guid: 82fb7a2f980f94143b7c2f2b351bf323, type: 3}
    - time: 2.5
      value: {fileID: 21300000, guid: 3355c2ded805c4412ad47ed30df1d04e, type: 3}
    - time: 2.5166667
      value: {fileID: 21300000, guid: f152e6ceb06e04fcc99f8d7d59f0c703, type: 3}
    - time: 2.5333335
      value: {fileID: 21300000, guid: 30428546bda4c45e8a1bda04ebf9b317, type: 3}
    - time: 2.5500002
      value: {fileID: 21300000, guid: c363f5ddcc98546f99c37a6f74c9555f, type: 3}
    - time: 2.5666668
      value: {fileID: 21300000, guid: 26dd5871c650c41bead763cc3ca9dc6b, type: 3}
    - time: 2.5833335
      value: {fileID: 21300000, guid: 82ced44a5ce7544d3a3fcecb8b9576ae, type: 3}
    - time: 2.6000001
      value: {fileID: 21300000, guid: 422519d689cb34942af21a90286533a9, type: 3}
    - time: 2.6166668
      value: {fileID: 21300000, guid: 82fb7a2f980f94143b7c2f2b351bf323, type: 3}
    - time: 2.6333334
      value: {fileID: 21300000, guid: 3355c2ded805c4412ad47ed30df1d04e, type: 3}
    - time: 2.65
      value: {fileID: 21300000, guid: f152e6ceb06e04fcc99f8d7d59f0c703, type: 3}
    - time: 2.6666667
      value: {fileID: 21300000, guid: 30428546bda4c45e8a1bda04ebf9b317, type: 3}
    - time: 2.6833334
      value: {fileID: 21300000, guid: c363f5ddcc98546f99c37a6f74c9555f, type: 3}
    - time: 2.7
      value: {fileID: 21300000, guid: 26dd5871c650c41bead763cc3ca9dc6b, type: 3}
    - time: 2.7166667
      value: {fileID: 21300000, guid: 82ced44a5ce7544d3a3fcecb8b9576ae, type: 3}
    - time: 2.7333333
      value: {fileID: 21300000, guid: 422519d689cb34942af21a90286533a9, type: 3}
    - time: 2.75
      value: {fileID: 21300000, guid: 82fb7a2f980f94143b7c2f2b351bf323, type: 3}
    - time: 2.7666667
      value: {fileID: 21300000, guid: 3355c2ded805c4412ad47ed30df1d04e, type: 3}
    - time: 2.7833333
      value: {fileID: 21300000, guid: f152e6ceb06e04fcc99f8d7d59f0c703, type: 3}
    - time: 2.8000002
      value: {fileID: 21300000, guid: 30428546bda4c45e8a1bda04ebf9b317, type: 3}
    - time: 2.8166668
      value: {fileID: 21300000, guid: c363f5ddcc98546f99c37a6f74c9555f, type: 3}
    - time: 2.8333335
      value: {fileID: 21300000, guid: 26dd5871c650c41bead763cc3ca9dc6b, type: 3}
    - time: 2.8500001
      value: {fileID: 21300000, guid: 82ced44a5ce7544d3a3fcecb8b9576ae, type: 3}
    - time: 2.8666668
      value: {fileID: 21300000, guid: 422519d689cb34942af21a90286533a9, type: 3}
    - time: 2.8833334
      value: {fileID: 21300000, guid: 82fb7a2f980f94143b7c2f2b351bf323, type: 3}
    - time: 2.9
      value: {fileID: 21300000, guid: 3355c2ded805c4412ad47ed30df1d04e, type: 3}
    - time: 2.9166667
      value: {fileID: 21300000, guid: f152e6ceb06e04fcc99f8d7d59f0c703, type: 3}
    attribute: m_Sprite
    path: 
    classID: 212
    script: {fileID: 0}
  m_SampleRate: 60
  m_WrapMode: 0
  m_Bounds:
    m_Center: {x: 0, y: 0, z: 0}
    m_Extent: {x: 0, y: 0, z: 0}
  m_ClipBindingConstant:
    genericBindings:
    - path: 0
      attribute: 1
      script: {fileID: 0}
      classID: 4
      customType: 0
      isPPtrCurve: 0
    - path: 0
      attribute: 555744692
      script: {fileID: 0}
      classID: 212
      customType: 0
      isPPtrCurve: 0
    - path: 0
      attribute: 304273561
      script: {fileID: 0}
      classID: 212
      customType: 0
      isPPtrCurve: 0
    - path: 0
      attribute: 0
      script: {fileID: 0}
      classID: 212
      customType: 23
      isPPtrCurve: 1
    pptrCurveMapping:
    - {fileID: 21300000, guid: 30428546bda4c45e8a1bda04ebf9b317, type: 3}
    - {fileID: 21300000, guid: c363f5ddcc98546f99c37a6f74c9555f, type: 3}
    - {fileID: 21300000, guid: 26dd5871c650c41bead763cc3ca9dc6b, type: 3}
    - {fileID: 21300000, guid: 82ced44a5ce7544d3a3fcecb8b9576ae, type: 3}
    - {fileID: 21300000, guid: 422519d689cb34942af21a90286533a9, type: 3}
    - {fileID: 21300000, guid: 82fb7a2f980f94143b7c2f2b351bf323, type: 3}
    - {fileID: 21300000, guid: 3355c2ded805c4412ad47ed30df1d04e, type: 3}
    - {fileID: 21300000, guid: f152e6ceb06e04fcc99f8d7d59f0c703, type: 3}
    - {fileID: 21300000, guid: 30428546bda4c45e8a1bda04ebf9b317, type: 3}
    - {fileID: 21300000, guid: c363f5ddcc98546f99c37a6f74c9555f, type: 3}
    - {fileID: 21300000, guid: 26dd5871c650c41bead763cc3ca9dc6b, type: 3}
    - {fileID: 21300000, guid: 82ced44a5ce7544d3a3fcecb8b9576ae, type: 3}
    - {fileID: 21300000, guid: 422519d689cb34942af21a90286533a9, type: 3}
    - {fileID: 21300000, guid: 82fb7a2f980f94143b7c2f2b351bf323, type: 3}
    - {fileID: 21300000, guid: 3355c2ded805c4412ad47ed30df1d04e, type: 3}
    - {fileID: 21300000, guid: f152e6ceb06e04fcc99f8d7d59f0c703, type: 3}
    - {fileID: 21300000, guid: 30428546bda4c45e8a1bda04ebf9b317, type: 3}
    - {fileID: 21300000, guid: c363f5ddcc98546f99c37a6f74c9555f, type: 3}
    - {fileID: 21300000, guid: 26dd5871c650c41bead763cc3ca9dc6b, type: 3}
    - {fileID: 21300000, guid: 82ced44a5ce7544d3a3fcecb8b9576ae, type: 3}
    - {fileID: 21300000, guid: 422519d689cb34942af21a90286533a9, type: 3}
    - {fileID: 21300000, guid: 82fb7a2f980f94143b7c2f2b351bf323, type: 3}
    - {fileID: 21300000, guid: 3355c2ded805c4412ad47ed30df1d04e, type: 3}
    - {fileID: 21300000, guid: f152e6ceb06e04fcc99f8d7d59f0c703, type: 3}
    - {fileID: 21300000, guid: 30428546bda4c45e8a1bda04ebf9b317, type: 3}
    - {fileID: 21300000, guid: c363f5ddcc98546f99c37a6f74c9555f, type: 3}
    - {fileID: 21300000, guid: 26dd5871c650c41bead763cc3ca9dc6b, type: 3}
    - {fileID: 21300000, guid: 82ced44a5ce7544d3a3fcecb8b9576ae, type: 3}
    - {fileID: 21300000, guid: 422519d689cb34942af21a90286533a9, type: 3}
    - {fileID: 21300000, guid: 82fb7a2f980f94143b7c2f2b351bf323, type: 3}
    - {fileID: 21300000, guid: 3355c2ded805c4412ad47ed30df1d04e, type: 3}
    - {fileID: 21300000, guid: f152e6ceb06e04fcc99f8d7d59f0c703, type: 3}
    - {fileID: 21300000, guid: 30428546bda4c45e8a1bda04ebf9b317, type: 3}
    - {fileID: 21300000, guid: c363f5ddcc98546f99c37a6f74c9555f, type: 3}
    - {fileID: 21300000, guid: 26dd5871c650c41bead763cc3ca9dc6b, type: 3}
    - {fileID: 21300000, guid: 82ced44a5ce7544d3a3fcecb8b9576ae, type: 3}
    - {fileID: 21300000, guid: 422519d689cb34942af21a90286533a9, type: 3}
    - {fileID: 21300000, guid: 82fb7a2f980f94143b7c2f2b351bf323, type: 3}
    - {fileID: 21300000, guid: 3355c2ded805c4412ad47ed30df1d04e, type: 3}
    - {fileID: 21300000, guid: f152e6ceb06e04fcc99f8d7d59f0c703, type: 3}
    - {fileID: 21300000, guid: 30428546bda4c45e8a1bda04ebf9b317, type: 3}
    - {fileID: 21300000, guid: c363f5ddcc98546f99c37a6f74c9555f, type: 3}
    - {fileID: 21300000, guid: 26dd5871c650c41bead763cc3ca9dc6b, type: 3}
    - {fileID: 21300000, guid: 82ced44a5ce7544d3a3fcecb8b9576ae, type: 3}
    - {fileID: 21300000, guid: 422519d689cb34942af21a90286533a9, type: 3}
    - {fileID: 21300000, guid: 82fb7a2f980f94143b7c2f2b351bf323, type: 3}
    - {fileID: 21300000, guid: 3355c2ded805c4412ad47ed30df1d04e, type: 3}
    - {fileID: 21300000, guid: f152e6ceb06e04fcc99f8d7d59f0c703, type: 3}
    - {fileID: 21300000, guid: 30428546bda4c45e8a1bda04ebf9b317, type: 3}
    - {fileID: 21300000, guid: c363f5ddcc98546f99c37a6f74c9555f, type: 3}
    - {fileID: 21300000, guid: 26dd5871c650c41bead763cc3ca9dc6b, type: 3}
    - {fileID: 21300000, guid: 82ced44a5ce7544d3a3fcecb8b9576ae, type: 3}
    - {fileID: 21300000, guid: 422519d689cb34942af21a90286533a9, type: 3}
    - {fileID: 21300000, guid: 82fb7a2f980f94143b7c2f2b351bf323, type: 3}
    - {fileID: 21300000, guid: 3355c2ded805c4412ad47ed30df1d04e, type: 3}
    - {fileID: 21300000, guid: f152e6ceb06e04fcc99f8d7d59f0c703, type: 3}
    - {fileID: 21300000, guid: 30428546bda4c45e8a1bda04ebf9b317, type: 3}
    - {fileID: 21300000, guid: c363f5ddcc98546f99c37a6f74c9555f, type: 3}
    - {fileID: 21300000, guid: 26dd5871c650c41bead763cc3ca9dc6b, type: 3}
    - {fileID: 21300000, guid: 82ced44a5ce7544d3a3fcecb8b9576ae, type: 3}
    - {fileID: 21300000, guid: 422519d689cb34942af21a90286533a9, type: 3}
    - {fileID: 21300000, guid: 82fb7a2f980f94143b7c2f2b351bf323, type: 3}
    - {fileID: 21300000, guid: 3355c2ded805c4412ad47ed30df1d04e, type: 3}
    - {fileID: 21300000, guid: f152e6ceb06e04fcc99f8d7d59f0c703, type: 3}
    - {fileID: 21300000, guid: 30428546bda4c45e8a1bda04ebf9b317, type: 3}
    - {fileID: 21300000, guid: c363f5ddcc98546f99c37a6f74c9555f, type: 3}
    - {fileID: 21300000, guid: 26dd5871c650c41bead763cc3ca9dc6b, type: 3}
    - {fileID: 21300000, guid: 82ced44a5ce7544d3a3fcecb8b9576ae, type: 3}
    - {fileID: 21300000, guid: 422519d689cb34942af21a90286533a9, type: 3}
    - {fileID: 21300000, guid: 82fb7a2f980f94143b7c2f2b351bf323, type: 3}
    - {fileID: 21300000, guid: 3355c2ded805c4412ad47ed30df1d04e, type: 3}
    - {fileID: 21300000, guid: f152e6ceb06e04fcc99f8d7d59f0c703, type: 3}
    - {fileID: 21300000, guid: 30428546bda4c45e8a1bda04ebf9b317, type: 3}
    - {fileID: 21300000, guid: c363f5ddcc98546f99c37a6f74c9555f, type: 3}
    - {fileID: 21300000, guid: 26dd5871c650c41bead763cc3ca9dc6b, type: 3}
    - {fileID: 21300000, guid: 82ced44a5ce7544d3a3fcecb8b9576ae, type: 3}
    - {fileID: 21300000, guid: 422519d689cb34942af21a90286533a9, type: 3}
    - {fileID: 21300000, guid: 82fb7a2f980f94143b7c2f2b351bf323, type: 3}
    - {fileID: 21300000, guid: 3355c2ded805c4412ad47ed30df1d04e, type: 3}
    - {fileID: 21300000, guid: f152e6ceb06e04fcc99f8d7d59f0c703, type: 3}
    - {fileID: 21300000, guid: 30428546bda4c45e8a1bda04ebf9b317, type: 3}
    - {fileID: 21300000, guid: c363f5ddcc98546f99c37a6f74c9555f, type: 3}
    - {fileID: 21300000, guid: 26dd5871c650c41bead763cc3ca9dc6b, type: 3}
    - {fileID: 21300000, guid: 82ced44a5ce7544d3a3fcecb8b9576ae, type: 3}
    - {fileID: 21300000, guid: 422519d689cb34942af21a90286533a9, type: 3}
    - {fileID: 21300000, guid: 82fb7a2f980f94143b7c2f2b351bf323, type: 3}
    - {fileID: 21300000, guid: 3355c2ded805c4412ad47ed30df1d04e, type: 3}
    - {fileID: 21300000, guid: f152e6ceb06e04fcc99f8d7d59f0c703, type: 3}
    - {fileID: 21300000, guid: 30428546bda4c45e8a1bda04ebf9b317, type: 3}
    - {fileID: 21300000, guid: c363f5ddcc98546f99c37a6f74c9555f, type: 3}
    - {fileID: 21300000, guid: 26dd5871c650c41bead763cc3ca9dc6b, type: 3}
    - {fileID: 21300000, guid: 82ced44a5ce7544d3a3fcecb8b9576ae, type: 3}
    - {fileID: 21300000, guid: 422519d689cb34942af21a90286533a9, type: 3}
    - {fileID: 21300000, guid: 82fb7a2f980f94143b7c2f2b351bf323, type: 3}
    - {fileID: 21300000, guid: 3355c2ded805c4412ad47ed30df1d04e, type: 3}
    - {fileID: 21300000, guid: f152e6ceb06e04fcc99f8d7d59f0c703, type: 3}
    - {fileID: 21300000, guid: 30428546bda4c45e8a1bda04ebf9b317, type: 3}
    - {fileID: 21300000, guid: c363f5ddcc98546f99c37a6f74c9555f, type: 3}
    - {fileID: 21300000, guid: 26dd5871c650c41bead763cc3ca9dc6b, type: 3}
    - {fileID: 21300000, guid: 82ced44a5ce7544d3a3fcecb8b9576ae, type: 3}
    - {fileID: 21300000, guid: 422519d689cb34942af21a90286533a9, type: 3}
    - {fileID: 21300000, guid: 82fb7a2f980f94143b7c2f2b351bf323, type: 3}
    - {fileID: 21300000, guid: 3355c2ded805c4412ad47ed30df1d04e, type: 3}
    - {fileID: 21300000, guid: f152e6ceb06e04fcc99f8d7d59f0c703, type: 3}
    - {fileID: 21300000, guid: 30428546bda4c45e8a1bda04ebf9b317, type: 3}
    - {fileID: 21300000, guid: c363f5ddcc98546f99c37a6f74c9555f, type: 3}
    - {fileID: 21300000, guid: 26dd5871c650c41bead763cc3ca9dc6b, type: 3}
    - {fileID: 21300000, guid: 82ced44a5ce7544d3a3fcecb8b9576ae, type: 3}
    - {fileID: 21300000, guid: 422519d689cb34942af21a90286533a9, type: 3}
    - {fileID: 21300000, guid: 82fb7a2f980f94143b7c2f2b351bf323, type: 3}
    - {fileID: 21300000, guid: 3355c2ded805c4412ad47ed30df1d04e, type: 3}
    - {fileID: 21300000, guid: f152e6ceb06e04fcc99f8d7d59f0c703, type: 3}
    - {fileID: 21300000, guid: 30428546bda4c45e8a1bda04ebf9b317, type: 3}
    - {fileID: 21300000, guid: c363f5ddcc98546f99c37a6f74c9555f, type: 3}
    - {fileID: 21300000, guid: 26dd5871c650c41bead763cc3ca9dc6b, type: 3}
    - {fileID: 21300000, guid: 82ced44a5ce7544d3a3fcecb8b9576ae, type: 3}
    - {fileID: 21300000, guid: 422519d689cb34942af21a90286533a9, type: 3}
    - {fileID: 21300000, guid: 82fb7a2f980f94143b7c2f2b351bf323, type: 3}
    - {fileID: 21300000, guid: 3355c2ded805c4412ad47ed30df1d04e, type: 3}
    - {fileID: 21300000, guid: f152e6ceb06e04fcc99f8d7d59f0c703, type: 3}
    - {fileID: 21300000, guid: 30428546bda4c45e8a1bda04ebf9b317, type: 3}
    - {fileID: 21300000, guid: c363f5ddcc98546f99c37a6f74c9555f, type: 3}
    - {fileID: 21300000, guid: 26dd5871c650c41bead763cc3ca9dc6b, type: 3}
    - {fileID: 21300000, guid: 82ced44a5ce7544d3a3fcecb8b9576ae, type: 3}
    - {fileID: 21300000, guid: 422519d689cb34942af21a90286533a9, type: 3}
    - {fileID: 21300000, guid: 82fb7a2f980f94143b7c2f2b351bf323, type: 3}
    - {fileID: 21300000, guid: 3355c2ded805c4412ad47ed30df1d04e, type: 3}
    - {fileID: 21300000, guid: f152e6ceb06e04fcc99f8d7d59f0c703, type: 3}
    - {fileID: 21300000, guid: 30428546bda4c45e8a1bda04ebf9b317, type: 3}
    - {fileID: 21300000, guid: c363f5ddcc98546f99c37a6f74c9555f, type: 3}
    - {fileID: 21300000, guid: 26dd5871c650c41bead763cc3ca9dc6b, type: 3}
    - {fileID: 21300000, guid: 82ced44a5ce7544d3a3fcecb8b9576ae, type: 3}
    - {fileID: 21300000, guid: 422519d689cb34942af21a90286533a9, type: 3}
    - {fileID: 21300000, guid: 82fb7a2f980f94143b7c2f2b351bf323, type: 3}
    - {fileID: 21300000, guid: 3355c2ded805c4412ad47ed30df1d04e, type: 3}
    - {fileID: 21300000, guid: f152e6ceb06e04fcc99f8d7d59f0c703, type: 3}
    - {fileID: 21300000, guid: 30428546bda4c45e8a1bda04ebf9b317, type: 3}
    - {fileID: 21300000, guid: c363f5ddcc98546f99c37a6f74c9555f, type: 3}
    - {fileID: 21300000, guid: 26dd5871c650c41bead763cc3ca9dc6b, type: 3}
    - {fileID: 21300000, guid: 82ced44a5ce7544d3a3fcecb8b9576ae, type: 3}
    - {fileID: 21300000, guid: 422519d689cb34942af21a90286533a9, type: 3}
    - {fileID: 21300000, guid: 82fb7a2f980f94143b7c2f2b351bf323, type: 3}
    - {fileID: 21300000, guid: 3355c2ded805c4412ad47ed30df1d04e, type: 3}
    - {fileID: 21300000, guid: f152e6ceb06e04fcc99f8d7d59f0c703, type: 3}
    - {fileID: 21300000, guid: 30428546bda4c45e8a1bda04ebf9b317, type: 3}
    - {fileID: 21300000, guid: c363f5ddcc98546f99c37a6f74c9555f, type: 3}
    - {fileID: 21300000, guid: 26dd5871c650c41bead763cc3ca9dc6b, type: 3}
    - {fileID: 21300000, guid: 82ced44a5ce7544d3a3fcecb8b9576ae, type: 3}
    - {fileID: 21300000, guid: 422519d689cb34942af21a90286533a9, type: 3}
    - {fileID: 21300000, guid: 82fb7a2f980f94143b7c2f2b351bf323, type: 3}
    - {fileID: 21300000, guid: 3355c2ded805c4412ad47ed30df1d04e, type: 3}
    - {fileID: 21300000, guid: f152e6ceb06e04fcc99f8d7d59f0c703, type: 3}
    - {fileID: 21300000, guid: 30428546bda4c45e8a1bda04ebf9b317, type: 3}
    - {fileID: 21300000, guid: c363f5ddcc98546f99c37a6f74c9555f, type: 3}
    - {fileID: 21300000, guid: 26dd5871c650c41bead763cc3ca9dc6b, type: 3}
    - {fileID: 21300000, guid: 82ced44a5ce7544d3a3fcecb8b9576ae, type: 3}
    - {fileID: 21300000, guid: 422519d689cb34942af21a90286533a9, type: 3}
    - {fileID: 21300000, guid: 82fb7a2f980f94143b7c2f2b351bf323, type: 3}
    - {fileID: 21300000, guid: 3355c2ded805c4412ad47ed30df1d04e, type: 3}
    - {fileID: 21300000, guid: f152e6ceb06e04fcc99f8d7d59f0c703, type: 3}
    - {fileID: 21300000, guid: 30428546bda4c45e8a1bda04ebf9b317, type: 3}
    - {fileID: 21300000, guid: c363f5ddcc98546f99c37a6f74c9555f, type: 3}
    - {fileID: 21300000, guid: 26dd5871c650c41bead763cc3ca9dc6b, type: 3}
    - {fileID: 21300000, guid: 82ced44a5ce7544d3a3fcecb8b9576ae, type: 3}
    - {fileID: 21300000, guid: 422519d689cb34942af21a90286533a9, type: 3}
    - {fileID: 21300000, guid: 82fb7a2f980f94143b7c2f2b351bf323, type: 3}
    - {fileID: 21300000, guid: 3355c2ded805c4412ad47ed30df1d04e, type: 3}
    - {fileID: 21300000, guid: f152e6ceb06e04fcc99f8d7d59f0c703, type: 3}
    - {fileID: 21300000, guid: 30428546bda4c45e8a1bda04ebf9b317, type: 3}
    - {fileID: 21300000, guid: c363f5ddcc98546f99c37a6f74c9555f, type: 3}
    - {fileID: 21300000, guid: 26dd5871c650c41bead763cc3ca9dc6b, type: 3}
    - {fileID: 21300000, guid: 82ced44a5ce7544d3a3fcecb8b9576ae, type: 3}
    - {fileID: 21300000, guid: 422519d689cb34942af21a90286533a9, type: 3}
    - {fileID: 21300000, guid: 82fb7a2f980f94143b7c2f2b351bf323, type: 3}
    - {fileID: 21300000, guid: 3355c2ded805c4412ad47ed30df1d04e, type: 3}
    - {fileID: 21300000, guid: f152e6ceb06e04fcc99f8d7d59f0c703, type: 3}
  m_AnimationClipSettings:
    serializedVersion: 2
    m_AdditiveReferencePoseClip: {fileID: 0}
    m_AdditiveReferencePoseTime: 0
    m_StartTime: 0
    m_StopTime: 2.9333334
    m_OrientationOffsetY: 0
    m_Level: 0
    m_CycleOffset: 0
    m_HasAdditiveReferencePose: 0
    m_LoopTime: 1
    m_LoopBlend: 0
    m_LoopBlendOrientation: 0
    m_LoopBlendPositionY: 0
    m_LoopBlendPositionXZ: 0
    m_KeepOriginalOrientation: 0
    m_KeepOriginalPositionY: 1
    m_KeepOriginalPositionXZ: 0
    m_HeightFromFeet: 0
    m_Mirror: 0
  m_EditorCurves:
  - curve:
      serializedVersion: 2
      m_Curve:
      - time: 0
        value: 0
        inSlope: -1.8445715
        outSlope: -1.8445715
        tangentMode: 10
      - time: 2.9166667
        value: -5.38
        inSlope: -1.8445715
        outSlope: -1.8445715
        tangentMode: 10
      m_PreInfinity: 2
      m_PostInfinity: 2
      m_RotationOrder: 4
    attribute: m_LocalPosition.x
    path: 
    classID: 4
    script: {fileID: 0}
  - curve:
      serializedVersion: 2
      m_Curve:
      - time: 0
        value: 0
        inSlope: 0
        outSlope: 0
        tangentMode: 10
      - time: 2.9166667
        value: 0
        inSlope: 0
        outSlope: 0
        tangentMode: 10
      m_PreInfinity: 2
      m_PostInfinity: 2
      m_RotationOrder: 4
    attribute: m_LocalPosition.y
    path: 
    classID: 4
    script: {fileID: 0}
  - curve:
      serializedVersion: 2
      m_Curve:
      - time: 0
        value: 0
        inSlope: 0
        outSlope: 0
        tangentMode: 10
      - time: 2.9166667
        value: 0
        inSlope: 0
        outSlope: 0
        tangentMode: 10
      m_PreInfinity: 2
      m_PostInfinity: 2
      m_RotationOrder: 4
    attribute: m_LocalPosition.z
    path: 
    classID: 4
    script: {fileID: 0}
  - curve:
      serializedVersion: 2
      m_Curve:
      - time: 0
        value: 0
        inSlope: Infinity
        outSlope: Infinity
        tangentMode: 31
      m_PreInfinity: 2
      m_PostInfinity: 2
      m_RotationOrder: 4
    attribute: m_FlipX
    path: 
    classID: 212
    script: {fileID: 0}
  - curve:
      serializedVersion: 2
      m_Curve:
      - time: 0
        value: 0
        inSlope: 4
        outSlope: 4
        tangentMode: 10
      - time: 0.25
        value: 1
        inSlope: 2
        outSlope: 2
        tangentMode: 10
      - time: 2.65
        value: 1
        inSlope: -1.8750001
        outSlope: -1.8750001
        tangentMode: 10
      - time: 2.9166667
        value: 0
        inSlope: -3.7500002
        outSlope: -3.7500002
        tangentMode: 10
      m_PreInfinity: 2
      m_PostInfinity: 2
      m_RotationOrder: 4
    attribute: m_Color.a
    path: 
    classID: 212
    script: {fileID: 0}
  m_EulerEditorCurves: []
  m_HasGenericRootTransform: 1
  m_HasMotionFloatCurves: 0
  m_GenerateMotionCurves: 0
  m_Events: []
