%YAML 1.1
%TAG !u! tag:unity3d.com,2011:
--- !u!114 &11400000
MonoBehaviour:
  m_ObjectHideFlags: 0
  m_PrefabParentObject: {fileID: 0}
  m_PrefabInternal: {fileID: 0}
  m_GameObject: {fileID: 0}
  m_Enabled: 1
  m_EditorHideFlags: 0
  m_Script: {fileID: 11500000, guid: a6b194f808b1af6499c93410e504af42, type: 3}
  m_Name: effect_parts_Atlas
  m_EditorClassIdentifier: 
  atlasFile: {fileID: 4900000, guid: e0710e9600c384665b3a69da67b7b4ef, type: 3}
  materials:
  - {fileID: 2100000, guid: 9b79d147c06aa4174a2fb758e4617ecf, type: 2}
