{
"skeleton": { "hash": "NPQHAwrRJy3o1A4b54VEllgTQ5s", "spine": "2.1.27", "width": 0, "height": 0, "images": "./dokodoko_format-assets/" },
"bones": [
	{ "name": "root" },
	{ "name": "effect set", "parent": "root" },
	{ "name": "bom alpha", "parent": "effect set", "scaleX": 4, "scaleY": 2 },
	{ "name": "bom effect", "parent": "effect set", "scaleX": 2.4, "scaleY": 2.4 }
],
"slots": [
	{ "name": "cannon_ball", "bone": "effect set", "attachment": "cannon_ball" },
	{ "name": "hit_guneffect0001", "bone": "bom effect", "attachment": "hit_guneffect0001" },
	{ "name": "bom alpha", "bone": "bom alpha", "attachment": "bom alpha", "blend": "additive" }
],
"skins": {
	"default": {
		"bom alpha": {
			"bom alpha": { "width": 240, "height": 240 }
		},
		"cannon_ball": {
			"cannon_ball": { "scaleX": 1.5, "scaleY": 1.5, "width": 137, "height": 136 }
		},
		"hit_guneffect0001": {
			"hit_guneffect0001": { "y": 193.55, "width": 552, "height": 548 },
			"hit_guneffect0002": { "y": 193.55, "width": 552, "height": 548 },
			"hit_guneffect0003": { "y": 193.55, "width": 552, "height": 548 },
			"hit_guneffect0004": { "y": 193.55, "width": 552, "height": 548 },
			"hit_guneffect0005": { "y": 193.55, "width": 552, "height": 548 },
			"hit_guneffect0006": { "y": 193.55, "width": 552, "height": 548 },
			"hit_guneffect0007": { "y": 193.55, "width": 552, "height": 548 },
			"hit_guneffect0008": { "y": 193.55, "width": 552, "height": 548 },
			"hit_guneffect0009": { "y": 193.55, "width": 552, "height": 548 }
		}
	}
},
"animations": {
	"attack_attack": {
		"slots": {
			"bom alpha": {
				"attachment": [
					{ "time": 0, "name": null }
				],
				"color": [
					{ "time": 0, "color": "ffffffff" }
				]
			},
			"cannon_ball": {
				"attachment": [
					{ "time": 0, "name": "cannon_ball" }
				],
				"color": [
					{ "time": 0, "color": "ffffffff" }
				]
			},
			"hit_guneffect0001": {
				"attachment": [
					{ "time": 0, "name": null }
				],
				"color": [
					{ "time": 0, "color": "ffffffff" }
				]
			}
		},
		"bones": {
			"bom effect": {
				"rotate": [
					{ "time": 0, "angle": 0 }
				],
				"translate": [
					{ "time": 0, "x": 0, "y": 0 }
				],
				"scale": [
					{ "time": 0, "x": 1, "y": 1 }
				]
			},
			"bom alpha": {
				"rotate": [
					{ "time": 0, "angle": 0 }
				],
				"translate": [
					{ "time": 0, "x": 0, "y": 0 }
				],
				"scale": [
					{ "time": 0, "x": 0.74, "y": 0.74 }
				]
			},
			"effect set": {
				"rotate": [
					{ "time": 0, "angle": 0 }
				],
				"translate": [
					{ "time": 0, "x": 0, "y": 0 }
				],
				"scale": [
					{ "time": 0, "x": 1, "y": 1 }
				]
			}
		}
	},
	"attack_effect": {
		"slots": {
			"bom alpha": {
				"attachment": [
					{ "time": 0, "name": "bom alpha" },
					{ "time": 0.1, "name": "bom alpha" },
					{ "time": 0.3333, "name": null }
				],
				"color": [
					{ "time": 0, "color": "ffffffff", "curve": "stepped" },
					{ "time": 0.1, "color": "ffffffff" },
					{ "time": 0.3333, "color": "ffffff00" }
				]
			},
			"cannon_ball": {
				"attachment": [
					{ "time": 0, "name": null }
				],
				"color": [
					{ "time": 0, "color": "ffffffff" }
				]
			},
			"hit_guneffect0001": {
				"attachment": [
					{ "time": 0, "name": "hit_guneffect0001" },
					{ "time": 0.1, "name": "hit_guneffect0002" },
					{ "time": 0.1333, "name": "hit_guneffect0003" },
					{ "time": 0.1666, "name": "hit_guneffect0004" },
					{ "time": 0.2, "name": "hit_guneffect0005" },
					{ "time": 0.2333, "name": "hit_guneffect0006" },
					{ "time": 0.3, "name": "hit_guneffect0007" },
					{ "time": 0.3666, "name": "hit_guneffect0008" },
					{ "time": 0.4333, "name": "hit_guneffect0009" },
					{ "time": 0.5, "name": null }
				],
				"color": [
					{ "time": 0, "color": "ffffffff" }
				]
			}
		},
		"bones": {
			"bom effect": {
				"rotate": [
					{ "time": 0, "angle": 0 }
				],
				"translate": [
					{ "time": 0, "x": 0, "y": 0 }
				],
				"scale": [
					{ "time": 0, "x": 1, "y": 1 }
				]
			},
			"bom alpha": {
				"rotate": [
					{ "time": 0, "angle": 0, "curve": "stepped" },
					{ "time": 0.1, "angle": 0, "curve": "stepped" },
					{ "time": 0.3333, "angle": 0 }
				],
				"translate": [
					{ "time": 0, "x": 0, "y": 0, "curve": "stepped" },
					{ "time": 0.1, "x": 0, "y": 0, "curve": "stepped" },
					{ "time": 0.3333, "x": 0, "y": 0 }
				],
				"scale": [
					{ "time": 0, "x": 0.74, "y": 0.74 },
					{ "time": 0.1, "x": 0.619, "y": 0.619 },
					{ "time": 0.3333, "x": 1.645, "y": 1.645 }
				]
			},
			"effect set": {
				"rotate": [
					{ "time": 0, "angle": 0 }
				],
				"translate": [
					{ "time": 0, "x": 0, "y": 0 }
				],
				"scale": [
					{ "time": 0, "x": 1, "y": 1 }
				]
			}
		}
	}
}
}