%YAML 1.1
%TAG !u! tag:unity3d.com,2011:
--- !u!114 &11400000
MonoBehaviour:
  m_ObjectHideFlags: 0
  m_PrefabParentObject: {fileID: 0}
  m_PrefabInternal: {fileID: 0}
  m_GameObject: {fileID: 0}
  m_Enabled: 1
  m_EditorHideFlags: 0
  m_Script: {fileID: 11500000, guid: f1b3b4b945939a54ea0b23d3396115fb, type: 3}
  m_Name: koppi_SkeletonData
  m_EditorClassIdentifier: 
  atlasAssets:
  - {fileID: 11400000, guid: 39aac8a78632a40af832c4bf949b7158, type: 2}
  - {fileID: 11400000, guid: 53f263aad60514407be8881e87968d1b, type: 2}
  - {fileID: 11400000, guid: 5c4818768c3dc45fb877d0159d084196, type: 2}
  skeletonJSON: {fileID: 4900000, guid: 4c1300753da87425994da52c5b61eb0f, type: 3}
  scale: 0.01
  fromAnimation: []
  toAnimation: []
  duration: []
  defaultMix: 0
  controller: {fileID: 0}
