%YAML 1.1
%TAG !u! tag:unity3d.com,2011:
--- !u!114 &11400000
MonoBehaviour:
  m_ObjectHideFlags: 0
  m_PrefabParentObject: {fileID: 0}
  m_PrefabInternal: {fileID: 0}
  m_GameObject: {fileID: 0}
  m_Enabled: 1
  m_EditorHideFlags: 0
  m_Script: {fileID: 11500000, guid: f1b3b4b945939a54ea0b23d3396115fb, type: 3}
  m_Name: zed_text_SkeletonData
  m_EditorClassIdentifier: 
  atlasAssets:
  - {fileID: 11400000, guid: f68d0c8d99e5e4f7e8504ee7ac278146, type: 2}
  skeletonJSON: {fileID: 4900000, guid: 3abc700a833e848bcb9a3372a6eae28a, type: 3}
  scale: 0.01
  fromAnimation: []
  toAnimation: []
  duration: []
  defaultMix: 0
  controller: {fileID: 0}
